<?xml version="1.0" encoding="UTF-8" standalone="no"?>
<!-- Created with Inkscape (http://www.inkscape.org/) -->

<svg
   xmlns:dc="http://purl.org/dc/elements/1.1/"
   xmlns:cc="http://creativecommons.org/ns#"
   xmlns:rdf="http://www.w3.org/1999/02/22-rdf-syntax-ns#"
   xmlns:svg="http://www.w3.org/2000/svg"
   xmlns="http://www.w3.org/2000/svg"
   xmlns:sodipodi="http://sodipodi.sourceforge.net/DTD/sodipodi-0.dtd"
   xmlns:inkscape="http://www.inkscape.org/namespaces/inkscape"
   width="720"
   height="720"
   viewBox="0 0 190.5 190.50001"
   version="1.1"
   id="svg8"
   inkscape:version="0.92.2 (5c3e80d, 2017-08-06)"
   sodipodi:docname="audio-cover.svg">
  <defs
     id="defs2" />
  <sodipodi:namedview
     id="base"
     pagecolor="#ffffff"
     bordercolor="#666666"
     borderopacity="1.0"
     inkscape:pageopacity="0.0"
     inkscape:pageshadow="2"
     inkscape:zoom="0.67361111"
     inkscape:cx="147.71134"
     inkscape:cy="385.97938"
     inkscape:document-units="mm"
     inkscape:current-layer="layer1"
     showgrid="false"
     units="px"
     showguides="true"
     inkscape:window-width="1920"
     inkscape:window-height="1009"
     inkscape:window-x="0"
     inkscape:window-y="34"
     inkscape:window-maximized="1"
     inkscape:guide-bbox="true">
    <inkscape:grid
       type="xygrid"
       id="grid129" />
  </sodipodi:namedview>
  <metadata
     id="metadata5">
    <rdf:RDF>
      <cc:Work
         rdf:about="">
        <dc:format>image/svg+xml</dc:format>
        <dc:type
           rdf:resource="http://purl.org/dc/dcmitype/StillImage" />
        <dc:title />
      </cc:Work>
    </rdf:RDF>
  </metadata>
  <g
     inkscape:label="Camada 1"
     inkscape:groupmode="layer"
     id="layer1"
     transform="translate(0,-106.49998)">
    <rect
       style="color:#000000;clip-rule:nonzero;display:inline;overflow:visible;visibility:visible;opacity:1;isolation:auto;mix-blend-mode:normal;color-interpolation:sRGB;color-interpolation-filters:linearRGB;solid-color:#000000;solid-opacity:1;vector-effect:none;fill:#4a86cf;fill-opacity:1;fill-rule:nonzero;stroke:#c4a000;stroke-width:0;stroke-linecap:butt;stroke-linejoin:miter;stroke-miterlimit:4;stroke-dasharray:none;stroke-dashoffset:0;stroke-opacity:1;marker:none;color-rendering:auto;image-rendering:auto;shape-rendering:auto;text-rendering:auto;enable-background:accumulate;font-variant-east_asian:normal"
       id="rect5458"
       width="190.5"
       height="190.5"
       x="5.3705994e-06"
       y="106.50001" />
    <rect
       style="color:#000000;clip-rule:nonzero;display:inline;overflow:visible;visibility:visible;opacity:1;isolation:auto;mix-blend-mode:normal;color-interpolation:sRGB;color-interpolation-filters:linearRGB;solid-color:#000000;solid-opacity:1;vector-effect:none;fill:#234e81;fill-opacity:1;fill-rule:nonzero;stroke:#c4a000;stroke-width:0;stroke-linecap:butt;stroke-linejoin:miter;stroke-miterlimit:4;stroke-dasharray:none;stroke-dashoffset:0;stroke-opacity:1;marker:none;color-rendering:auto;image-rendering:auto;shape-rendering:auto;text-rendering:auto;enable-background:accumulate;font-variant-east_asian:normal"
       id="rect3866"
       width="190.5"
       height="25.4"
       x="-1.1205539e-22"
       y="258.89993"
       ry="0" />
    <text
       xml:space="preserve"
       style="font-style:normal;font-variant:normal;font-weight:bold;font-stretch:normal;font-size:8.46666622px;line-height:7.61999989px;font-family:'DejaVu Sans Mono';-inkscape-font-specification:'DejaVu Sans Mono Bold';letter-spacing:0px;word-spacing:0px;fill:#ffffff;fill-opacity:1;stroke:none;stroke-width:0.3175px;stroke-linecap:butt;stroke-linejoin:miter;stroke-opacity:1"
       x="32.483799"
       y="274.98166"
       id="text4675"><tspan
         sodipodi:role="line"
         x="32.483799"
         y="274.98166"
         style="font-style:normal;font-variant:normal;font-weight:bold;font-stretch:normal;font-size:8.46666622px;line-height:7.61999989px;font-family:'DejaVu Sans Mono';-inkscape-font-specification:'DejaVu Sans Mono Bold';fill:#ffffff;stroke-width:0.3175px"
         id="tspan4681">#10 GNOME</tspan></text>
    <g
       id="g4962"
       transform="matrix(1.0498566,0,0,1.0498566,-157.59539,-10.479025)">
      <g
         style="fill:#ffffff"
         inkscape:label="Layer 1"
         id="layer1-6"
         transform="matrix(0.02285266,0,0,0.02285266,149.12261,263.53695)">
        <ellipse
           style="color:#000000;display:inline;overflow:visible;visibility:visible;fill:#ffffff;fill-opacity:1;fill-rule:nonzero;stroke:none;stroke-width:7.47116804;marker:none;enable-background:accumulate"
           id="path3082"
           transform="rotate(-11.00343)"
           cx="862.33319"
           cy="535.36157"
           rx="10.685362"
           ry="12.447895" />
        <g
           style="fill:#ffffff"
           id="g4030"
           transform="translate(64,42.666667)">
          <path
             sodipodi:nodetypes="ccccccsccsscccsccssssccsccssscccssccccccccccccccccccccsccccccccscssssccssssscsssssccccssccccccccscccccsccccsccscccsccccccccccccccsccsccccccscccssscscccsccccsccccccccsccsccsccccccsccccccccccccccccccccccccscccccccccsccccccscsccccsccccccccccccccccccccccccccccccccccccccsssccccccccccccccccccccccccscccccsccccccccccccccccccccccccccccccccccccccccccccccccccccccccccccccccccccccccccssccccccscccccccccccccccscccscsccccscsccccccssscccscccssccsccccccccccccsccsccscccccccscccssccccsssssscccccssssssccscccscccscsccccccccccccscccscccccccccscccccscsccccscccscsccccccccccccccccsccccsccccccccccccccccccsccsccscsscssccccccccccccccccccccccccccccccccccccccccccccccccccccccccccccccccc"
             inkscape:connector-curvature="0"
             style="fill:#ffffff;fill-rule:evenodd;stroke-width:1.40517771"
             d="m 270.39681,143.43203 c -5.10641,0.34707 -11.7543,2.63471 -16.21434,10.62876 -3.64082,6.52846 -12.17024,7.5697 -16.15252,6.25445 -6.63384,-2.19208 -15.11269,-3.71249 -23.32593,2.14008 -8.21328,5.85116 -17.08276,1.42626 -15.52722,-9.24045 1.55553,-10.66529 5.40852,-20.1657 15.6354,-26.04918 22.33531,-12.84895 6.81231,-21.79149 19.07107,-34.686806 12.28266,-12.920607 9.56926,-16.874777 9.16177,-34.422634 C 201.53187,51.820071 178.00359,39.854984 151.73097,7.0300363 125.45836,-25.796317 115.27363,-52.816473 112.5504,-93.97132 c -2.72324,-41.15484 -0.36254,-67.82651 17.41859,-101.9878 17.78111,-34.16126 36.50229,-50.60606 68.94503,-67.66351 32.44274,-17.05463 64.23068,-21.13948 93.61294,-20.64206 29.38227,0.49603 48.96059,2.64877 65.56277,12.12108 16.60077,9.47229 31.78792,21.39241 41.46961,21.47813 9.68308,0.0858 16.27476,-2.45063 20.9807,-6.05632 1.25623,31.90176 -27.45576,34.67276 -53.14241,35.34724 -25.68805,0.67309 -41.47242,-9.95287 -65.13139,-6.0001 -23.65897,3.95276 -62.3955,14.71924 -81.26564,47.56525 -18.87012,32.84604 -19.5137,44.45701 -17.94551,72.00131 1.56817,27.54569 25.27633,48.096412 38.65924,48.319845 13.3815,0.223421 16.36891,-3.652059 28.08248,-11.292005 11.71496,-7.64136 71.51791,-81.67173 91.92391,-98.30062 20.40739,-16.62886 40.54499,-21.76338 62.2887,-22.03038 21.74372,-0.26696 27.2998,0.47075 44.83641,7.65824 17.53662,7.18607 28.31291,20.42144 42.45182,28.51245 7.22683,-4.25347 11.71637,-10.60488 18.3474,-15.45133 23.71518,-17.33287 36.03718,-22.00368 64.22365,-19.26078 16.20028,1.57661 36.62735,10.83111 48.81586,21.42897 21.70297,18.87012 39.63304,45.14133 54.12182,65.09907 11.28217,15.54266 24.55829,34.13878 43.51133,39.951999 20.69405,6.344377 36.26623,-20.457979 38.55244,-35.324749 1.29558,-8.42405 2.98601,-15.80685 3.00007,-25.07821 0.0141,-9.27277 -0.93305,-20.52543 -3.60569,-30.18884 -2.67265,-9.6634 -7.25073,-19.27904 -12.20818,-27.25201 -8.06853,-12.97682 -21.27017,-26.55645 -35.00578,-33.54299 -7.70881,-3.92045 -25.84544,-11.04891 -37.27796,-11.29904 -14.00822,-0.30351 -24.68054,4.40243 -37.63207,5.28487 -15.67615,1.06935 -43.67854,4.59353 -55.96822,-7.51769 -7.82122,-7.70741 -8.80485,-12.84894 -10.14117,-22.89877 3.45534,2.84688 8.28773,4.71857 12.58899,5.08252 9.81657,0.82905 19.00784,-7.18607 26.93163,-11.8302 6.52705,-3.82629 15.77031,-10.66388 24.34331,-14.11921 22.02755,-8.88073 49.08566,-8.62498 72.33854,-6.24602 18.63826,1.90542 42.80311,10.19737 59.14953,19.44766 16.42371,9.29103 32.25024,24.95736 43.84295,39.72576 14.58433,18.58208 22.55731,34.52523 27.83937,57.70082 6.75188,29.59585 8.62358,74.05567 0.46091,103.23699 -6.4329,22.995735 -27.79301,58.32049535 -45.97601,75.636497 -17.93287,17.079934 -38.63957,25.324111 -62.18753,29.833326 0.92179,4.75231 1.07354,9.18424 2.29183,13.080798 1.73119,5.530779 5.04178,11.696697 11.84285,9.746311 2.71199,-0.777063 4.16353,-1.450143 7.73972,1.677782 3.57335,3.127926 1.71291,15.211048 -8.34396,20.633627 -5.09938,2.749933 -10.4812,3.347133 -18.6481,3.510135 -8.1669,0.163 -20.91326,0.19813 -29.77994,-1.354592 -8.86526,-1.551316 -14.16136,-8.58704 -23.98076,-9.6887 -15.1745,-1.697453 -26.79391,-12.660649 -38.96135,-20.50154 -5.0769,-3.272659 -6.78982,-3.306383 -9.7154,-4.960277 1.58083,4.839431 3.68859,9.865752 4.73967,14.518294 1.05388,4.652544 0.60421,8.962223 1.16349,12.685945 0.55645,3.720909 1.58925,6.61417 2.19067,9.632491 2.43094,2.173809 3.20802,5.480193 7.29146,6.520023 4.08626,1.03843 10.48403,-0.57893 14.66443,-1.141 4.18041,-0.56207 6.98233,-2.839867 10.26201,-2.215968 3.2825,0.622498 6.39216,2.971948 9.1421,5.173868 2.74992,2.20191 5.11344,2.5237 7.33924,8.01794 2.2258,5.49425 4.26752,16.7455 4.57244,24.26601 0.30492,7.52051 -0.53818,14.30892 -2.7668,20.27672 -2.2286,5.96778 -4.18741,8.61373 -10.22266,14.5239 -6.03524,5.91159 -15.86305,14.58575 -25.66978,20.62802 0.62771,6.28954 2.791,10.96992 8.29054,17.24152 2.6524,3.02475 4.22701,6.44407 3.71596,9.8403 -2.30285,15.30382 -11.14231,20.643 -19.38334,19.91967 -11.83787,-1.03899 -39.39364,-1.85932 -60.67257,4.85597 -11.44715,3.61254 -48.10518,14.13791 -73.66522,-0.43331 -23.46972,-13.37959 -40.25485,-52.30136 -43.89606,-63.226 4.52596,33.59304 -3.55984,61.44145 23.44756,83.85782 13.45958,11.17156 42.12639,13.51333 66.93172,7.82679 19.71306,-4.51918 42.50571,-8.57977 59.80829,-9.23301 19.41173,-0.73288 25.63638,5.25491 27.55652,9.89601 4.05963,9.81242 3.55536,18.48161 1.12736,28.95128 -0.9894,4.26643 -3.19116,13.93937 -8.45354,16.42092 -5.2638,2.48154 -15.4134,1.28011 -21.83787,2.30027 -6.42447,1.02157 -10.02032,1.99114 -15.02838,2.98601 -3.04361,4.3996 -7.5753,9.2545 -9.12804,13.19742 -1.55552,3.94434 -1.08619,5.35794 0.21921,9.38518 1.30542,4.02724 5.75,9.89105 7.00904,14.60682 1.25903,4.71578 1.50354,9.79268 0.32882,14.5211 -1.17755,4.72844 -3.19117,8.15988 -7.22121,12.35855 -4.02866,4.20006 -11.95526,7.49802 -15.90381,10.90137 -3.95135,3.40474 -7.88445,3.81365 -6.80668,9.44701 1.48245,7.7369 12.78712,20.28515 20.96525,23.27254 4.90126,1.79161 11.4803,1.22672 17.43263,-1.28573 -0.40328,6.60854 -6.12235,11.06296 -9.85872,15.45134 10.11869,-2.89328 19.93103,-8.43248 26.71804,-15.77453 -2.10496,6.37669 -9.34724,16.61342 -20.17975,25.60232 -10.83251,8.98893 -10.76647,7.14956 -16.15112,10.72573 9.82502,1.97428 18.96147,1.4403 26.57192,0.0731 -4.17197,2.30027 -11.01098,5.535 -20.07015,6.48629 -9.05919,0.94991 -14.64477,0.27822 -22.80884,-1.70449 -8.16549,-1.9841 -15.61856,-9.40624 -25.51241,-14.5225 0.96395,3.67033 1.64967,8.08399 5.81041,11.85829 4.16073,3.77432 10.45592,5.69379 17.14738,8.95801 -8.51819,-0.96676 -17.46917,-1.25904 -25.83982,-3.10403 -6.19683,-1.36725 -10.36037,-2.81738 -14.89486,-5.06286 -4.53171,-2.24547 -8.0306,-5.52095 -12.0452,-8.28071 1.9237,3.67454 2.49419,7.99686 5.76826,11.02642 3.27406,3.02957 8.59547,4.15793 12.89954,6.23899 -4.48955,-0.0984 -8.80766,0.87543 -13.46161,-0.29509 -4.65676,-1.17051 -9.02405,-3.00988 -13.86489,-6.57623 -4.84084,-3.56634 -9.83342,-7.95751 -13.96465,-12.44706 -4.12842,-4.48954 -9.2264,-10.30978 -10.76929,-14.44943 -1.54569,-4.14107 0.92742,-7.03714 1.39112,-10.55148 -2.85109,1.87309 -6.35841,2.9045 -8.54909,5.62352 -2.19067,2.71901 -4.13262,5.20197 -3.16305,9.94162 0.97096,4.73967 5.34529,10.53322 8.43808,15.80544 -9.22921,-7.54721 -14.38339,-10.45311 -16.57968,-19.55727 -2.05577,-8.52379 3.26282,-16.2607 7.30552,-22.70625 2.008,-3.20099 5.01226,-6.17997 6.88959,-9.26996 -4.16917,-4.07923 -8.93413,-7.58515 -12.50749,-12.23768 -3.57196,-4.65115 -5.07269,-10.94635 -8.71914,-15.39655 -3.64784,-4.45159 -8.55472,-7.26897 -12.82786,-10.89856 3.75604,8.06853 9.92899,17.96521 11.26953,24.20981 1.33912,6.24462 -1.50214,10.06669 -3.71811,13.43772 -2.21736,3.37102 -5.79496,4.1228 -9.18845,6.19402 -3.39351,2.07264 -8.67135,0.43841 -10.6934,3.51436 -2.02065,3.07451 -2.56305,7.70036 -0.63093,10.74679 l 7.9252,12.50889 c -2.91996,-1.47403 -7.95049,-5.76123 -10.21844,-8.80204 -2.26795,-3.0408 -5.74718,-5.84974 -6.22354,-9.96129 -0.47636,-4.11015 -0.7082,-7.67791 1.9546,-11.33979 2.66421,-3.6605 9.95709,-4.8858 13.22131,-7.70037 3.26424,-2.81458 5.09518,-4.64693 4.90829,-8.28493 -0.18548,-3.63801 -3.73916,-6.24039 -6.79403,-8.53365 -9.32616,-6.99496 -21.28984,-13.44051 -29.20943,-21.87157 -4.47407,-4.76356 -6.62119,-8.60953 -7.52051,-11.89624 -0.89791,-3.28531 0.0521,-5.84836 2.27499,-9.88964 2.22298,-4.0427 9.84608,-9.43998 10.77349,-13.83116 0.92601,-4.38978 -2.92416,-5.33266 -6.39918,-6.88117 -3.475,-1.54851 -10.07511,0.79394 -13.29859,-1.89979 -3.22207,-2.69372 0.94708,-8.35379 -2.6853,-11.45781 -3.63098,-3.10405 -11.9426,-1.37147 -16.23261,-4.71017 -4.29001,-3.34011 -6.06334,-7.48537 -7.54159,-12.33043 -1.47824,-4.84506 -1.64546,-10.15242 -0.64357,-13.66114 1.00189,-3.50873 4.01178,-4.12279 5.82727,-5.94108 1.81549,-1.81831 3.39069,-8.94678 0.97097,-11.65876 -2.41972,-2.71058 -10.34913,0.15176 -14.90751,-3.32888 -4.55841,-3.48062 -1.76772,-25.86931 -4.9912,-29.38366 -3.22207,-3.51436 -9.00578,-2.13868 -12.05783,-3.26142 -3.05064,-1.12273 -4.24784,0.028 -6.11954,-6.23617 -1.8717,-6.26569 -1.92229,-30.56261 -4.44037,-37.53229 -2.51808,-6.96969 -7.4629,-0.47073 -9.75896,-7.39827 -2.29605,-6.92612 -0.11948,-18.00313 -1.15364,-28.46468 l -4.68628,-28.46469 c -16.34784,10.98147 -27.1396,14.42977 -44.7029,17.5324 -1.46562,42.97314 -5.50269,68.27899 9.08306,115.95525 14.58574,47.67487 44.10431,103.87635 83.92563,144.24008 -52.54662,-39.36747 -77.63325,-99.47534 -93.3347,-140.4756 -15.70427,-41.0059 -12.68875,-75.29785 -11.10934,-114.78334 z m 279.22003,-17.27244 c 4.0427,0.18126 8.9552,1.20705 11.79366,3.05063 2.83987,1.8436 5.85396,3.34995 8.43107,5.97341 6.43009,6.54813 11.25264,14.44523 13.38431,23.51987 1.3588,5.78512 1.56115,13.20445 2.05577,19.99708 -1.94616,-6.27833 -3.25439,-12.82505 -6.0268,-18.44998 -4.3715,-8.86948 -11.79788,-17.52678 -21.02005,-21.51328 -3.04362,-1.31805 -5.0741,-1.07355 -6.74907,-0.84028 0.74895,1.25762 2.00379,2.31151 2.05858,4.15369 0.0548,1.84219 -0.35692,5.44647 -3.48063,6.96126 -5.03615,2.4436 -10.63438,0.72507 -14.5239,-2.7134 -3.92186,-3.46516 -5.25818,-9.32757 -3.20521,-14.36514 2.44641,-6.00291 11.76835,-6.01837 17.28227,-5.77386 z m -50.68757,-8.54348 c 0.50728,-10.32103 4.23239,-19.024703 13.48127,-24.086153 4.78324,-2.616441 12.15199,-6.000108 18.92353,-6.795438 6.50457,-0.763012 22.32687,-0.205157 31.84413,4.138248 7.30834,3.335891 12.28689,8.529428 18.70433,12.324813 6.41603,3.79679 10.98006,6.34157 17.08977,10.59926 9.37816,6.53547 14.87522,13.73138 21.37696,18.04528 3.12653,2.07264 7.52473,1.7649 11.67563,3.03238 -3.2277,0.95832 -7.44604,2.01502 -10.92807,0.90212 -4.342,-1.38832 -10.41236,-5.35794 -13.78057,-8.20342 -5.95234,-5.02774 -9.03811,-7.48118 -15.53425,-11.27375 -3.87829,-2.25952 -10.26482,-4.92233 -14.52673,-7.70177 -4.2647,-2.77944 -11.66718,-8.877916 -15.76468,-10.942122 -5.20899,-2.622061 -14.58714,-4.080635 -20.38631,-3.910608 -7.98984,0.233259 -19.55446,1.551316 -25.73724,7.16078 -6.14203,5.57575 -8.47462,10.48122 -7.08912,17.72211 2.31292,-2.66422 3.853,-6.01135 6.17014,-7.99266 4.80008,-4.1003 10.30839,-4.29843 16.28319,-3.52137 6.71254,0.87402 10.09198,4.7509 12.30936,11.12338 -1.49231,-1.09604 -4.23521,-3.50311 -6.40058,-4.24926 -5.08254,-1.75365 -8.92569,-1.21407 -13.68644,1.33915 -5.6207,3.0155 -4.09188,7.47835 -4.90125,12.44143 -0.37096,2.28903 -1.23516,4.13263 -1.85203,6.19965 -2.11338,-0.55927 -4.068,-1.4389 -5.66707,-3.02395 0.0659,2.31855 -0.2712,4.34622 0.20374,6.95422 0.47213,2.60661 1.74243,5.70362 2.61223,8.55473 -3.91343,-3.91482 -7.91818,-7.55986 -10.44609,-12.61428 -2.53072,-5.05723 -4.24504,-10.66952 -3.97385,-16.22277 z m 6.77297,-75.120797 c 2.88481,-4.281575 3.72933,-10.849376 5.50829,-16.189052 -0.71102,6.763121 0.65621,14.200726 -2.64594,19.099175 -3.30218,4.898449 -9.10134,4.039885 -13.90566,5.464735 3.73779,-2.8497 8.15706,-4.093283 11.04331,-8.374858 z m -69.0659,100.284707 c 3.70407,-2.99864 13.70049,-0.60141 21.17745,-0.066 -5.37341,1.37567 -10.74681,2.75274 -16.1202,4.12842 -0.50025,1.82813 -0.27402,3.92325 -1.50073,5.48158 -1.22813,1.55975 -3.56073,2.13728 -5.33969,3.20381 0.17566,-4.80289 -1.92087,-9.75053 1.78317,-12.74777 z m 52.68151,-208.275419 c 4.46286,2.402853 10.12712,5.579966 14.06865,5.678326 3.94152,0.09838 4.97292,-2.577095 7.29146,-4.121379 3.64785,11.894827 7.83528,24.96438 14.04616,35.757548 2.60238,4.521862 4.2619,2.419715 6.24039,6.96406 1.97568,4.542939 2.85392,13.7876033 4.72842,19.5923913 1.87732,5.804789 4.32514,10.076529 6.48771,15.1140897 -5.49144,-7.7804687 -12.58617,-17.7010217 -15.64665,-24.17608 -3.05768,-6.473653 -1.10025,-7.03713 -3.57619,-13.203048 -2.47591,-6.16592 -7.48116,-15.777335 -11.22174,-23.665996 -2.67826,0.355509 -5.99449,0.843105 -8.03059,0.214984 -2.0361,-0.62811 -1.63,-2.79349 -3.46938,-4.193047 -1.84219,-1.399558 -4.93779,-0.857157 -7.51769,-3.091393 -2.57991,-2.232825 -3.16728,-6.815109 -3.40055,-10.870456 z m -24.02993,58.6928663 c 4.20008,-0.368156 9.41609,0.757392 13.34918,0.533968 3.9331,-0.223423 6.74064,-1.243582 10.11166,-1.866075 -0.6253,-5.9242293 -0.0323,-16.8087353 -5.50127,-20.7643103 -3.53261,-2.554612 -18.04108,-0.630925 -21.91655,0.205156 -8.72053,1.880128 -18.87576,7.084905 -27.30962,10.339297 8.08257,-5.646003 15.0649,-10.878885 24.75922,-13.793223 5.82727,-1.752258 19.42658,-4.030049 25.44074,-2.405665 2.74572,0.740529 3.30076,1.877318 4.9659,4.204293 5.72469,7.992649 5.70782,14.900502 7.1931,24.2112093 1.45999,2.274983 3.01552,3.792574 4.19867,6.13922005 1.18035,2.34664795 1.84922,6.03945395 2.17944,9.05777495 -1.49793,-2.172404 -0.58175,-4.897044 -4.73124,-6.514403 -4.1523,-1.61735895 -10.50932,-0.106798 -16.10334,0.477761 4.07783,2.942441 6.10409,5.776684 6.26007,11.9974057 0.18268,7.304112 -6.00151,12.560882 -12.45829,13.061125 -8.96364,0.695563 -13.58528,-1.273091 -17.21063,-8.934119 -1.58784,-3.355563 -0.43701,-7.392639 -0.5691,-10.6638927 -10.77068,0.748961 -10.59503,0.397666 -18.46683,6.9612497 4.27876,6.268498 6.97389,9.872779 14.04474,13.623197 3.96541,2.104957 8.45496,4.150895 13.36887,4.986975 4.9153,0.836082 12.97681,1.644058 18.13943,0.851538 5.16403,-0.79252 8.0896,-2.266551 11.91732,-5.806193 3.82911,-3.541048 4.18039,-8.61093 5.67551,-12.618495 -0.34007,3.857212 -0.7827,8.769713 -2.21457,11.567422 -4.35605,8.505539 -11.88921,11.026428 -20.88375,11.054531 -8.6334,0.0281 -19.31276,-1.963033 -27.34475,-5.293304 -6.42166,-2.661406 -17.06729,-10.198778 -19.5938,-16.746906 -1.72697,-4.474086 -0.35973,-9.9641137 -0.541,-14.9468737 8.89197,-5.912988 11.09248,-4.458629 21.61304,-6.189808 4.40102,-0.725071 7.42778,-2.359292 11.62785,-2.728855 z M 413.49167,-46.851495 c 0.25012,-3.54246 0.64217,-3.466578 0.96395,-5.200567 -8.10085,-2.166781 -11.34963,3.08858 -16.09912,12.848944 -1.77754,3.652058 -0.0183,5.825867 -1.92509,8.230127 -1.90402,2.404259 -4.97294,2.067016 -8.06572,4.375722 -3.09279,2.307302 -6.15748,6.726585 -9.04934,9.116793 -5.93408,4.905475 -13.95483,7.8999083 -20.83738,11.2006703 4.70032,-3.467978 13.82132,-8.7275583 16.77219,-13.7665253 1.56538,-2.671243 1.33353,-7.708804 3.7701,-10.110253 2.43517,-2.402854 3.28812,-4.065178 6.43291,-4.677836 3.14478,-0.612658 1.88012,-4.257687 2.89466,-7.155164 1.01453,-2.897474 3.03517,-4.954656 5.1851,-7.849319 2.14992,-2.894673 4.86192,-7.240885 9.10696,-8.818898 4.24504,-1.579424 10.86482,0.127874 14.07847,-0.781274 3.21224,-0.909149 1.36725,-3.244558 3.70123,-4.646928 2.33682,-1.40237 6.87976,-0.784087 10.00066,-2.283416 5.53218,-2.660001 8.17814,-7.100361 11.50558,-11.854071 0.4834,10.2325 0.36536,17.599852 -3.31199,27.226716 -4.14106,10.835326 -8.33832,17.217643 -20.09123,23.880994 -4.04972,2.294656 -8.07976,3.091391 -11.43674,4.295629 1.95742,-2.669838 4.75934,-3.829109 5.87364,-8.009513 1.11149,-4.183214 0.28104,-12.477977 0.53116,-16.021831 z M 603.24404,3.0421423 c -5.58838,0.363942 -6.91347,-0.370967 -11.38474,2.782251 2.42392,3.771496 4.84644,7.5429937 7.26757,11.3144897 -0.21359,-7.4446307 0.51148,-8.9369287 4.11717,-14.0967407 z m -14.64195,-5.409934 c 7.73971,-3.296546 14.48317,-5.963573 22.90298,-6.490515 3.37525,-0.212182 8.61515,0.310544 12.02412,0.465114 2.90308,-4.2745513 6.60292,-7.6455713 7.95891,-12.5243483 0.89791,-3.236124 0.45528,-18.256068 -1.13397,-22.155435 -4.63006,-11.348211 -9.13085,-11.827381 -15.50332,-18.327734 -4.62444,-4.714372 -4.80853,-11.89342 -6.19122,-19.93807 -0.50726,-2.95508 -1.9574,-6.69426 -2.63751,-9.74349 -8.32989,-1.40378 -17.28791,-1.86608 -26.87123,-1.38691 4.64693,-4.45722 9.13928,-8.52943 10.4728,-15.22088 1.3307,-6.69146 0.24731,-14.91878 -3.5565,-20.91888 -3.80381,-6.00011 -9.87981,-11.22737 -15.45696,-16.11598 -5.57995,-4.88862 -13.57682,-8.92429 -18.8631,-12.92343 6.87553,-2.46187 13.89581,-6.0788 20.63082,-7.38421 17.54504,-3.40333 32.66195,1.80145 49.5845,12.03254 9.83906,5.95093 17.97643,11.60396 28.26233,22.37183 10.2831,10.76647 23.03789,30.51625 32.99358,42.22841 9.95568,11.71215 17.99329,20.97507 26.67869,27.960211 8.68681,6.986549 16.54878,8.976275 24.82107,13.463013 l 12.89389,13.692047 10.43487,-12.912174 16.79046,1.898392 3.46938,-18.846236 15.41058,-4.222563 -2.51385,-25.40561 11.07981,-7.86338 -8.32707,-15.80684 8.46057,-17.27245 -11.03065,-19.74414 4.25347,-19.01065 -12.77024,-10.8831 -1.66654,-20.20224 -17.81485,-6.79544 -7.14673,-17.57596 -20.0294,-0.22483 -9.82501,-13.04707 -13.48408,0.94428 -15.03118,-1.63704 -8.49992,-6.27552 -12.33606,8.18938 -14.9272,-7.78328 -29.67314,11.26531 19.34369,-16.82278 20.04063,-3.20101 15.35298,-3.91341 20.73479,6.80949 18.25046,-4.62304 17.59703,10.40253 18.62142,-1.02998 9.1477,16.41387 18.54132,2.14008 10.03156,18.24904 11.66157,6.36686 3.0956,23.37793 10.38568,9.85031 -4.56683,20.45517 12.23488,15.49068 -11.47187,16.59796 12.2672,10.37442 -15.68179,13.89862 15.88272,16.54034 -19.18067,6.18559 12.49345,17.740365 -15.66775,2.703568 10.27466,19.506671 -17.65745,-0.234664 8.89477,14.611036 -19.36756,-2.33119 4.63286,21.02005235 L 783.68992,-12.792804 778.67624,12.683066 768.57582,-5.6095367 763.10547,17.206332 750.63733,0.38214135 750.97738,24.306695 737.19681,2.7948313 c 2.90591,12.2053717 2.32417,25.5700167 10.34069,37.0770147 24.83793,-3.361184 41.07195,-9.619846 60.10086,-27.930714 17.33146,-16.6766477 38.04659,-51.447767 43.65605,-73.502033 6.4006,-25.166719 6.59732,-71.453269 0.29368,-97.075279 -6.06755,-24.6693 -13.95341,-36.45313 -28.04312,-56.5837 -13.46722,-14.30331 -26.71243,-29.41318 -43.805,-39.61337 -25.09086,-14.97215 -57.2638,-19.00923 -85.85918,-18.62 -15.83354,0.2164 -26.43982,3.25721 -35.90649,6.69989 -16.55439,6.01978 -29.79397,19.15116 -46.62379,25.64028 -5.48862,2.11478 -9.88823,2.18083 -14.21056,-0.12791 4.2324,8.46759 8.83716,12.26579 19.39286,15.34734 7.63572,2.22862 25.85525,0.81923 38.39788,-0.33864 13.46441,-1.24358 20.48749,-5.24694 38.8124,-4.9954 17.89635,0.2459 32.0774,7.04415 39.83117,11.47749 15.99794,9.1477 27.46981,19.29589 37.43814,35.37111 5.47458,8.82733 9.30931,18.78724 12.01006,28.95088 2.70075,10.16365 3.88391,21.547 4.05674,31.49706 0.17284,9.95006 -0.58737,18.83219 -3.02112,27.78599 -5.69238,20.96243 -18.25046,42.293032 -44.0467,38.997883 -15.78577,-2.01783 -39.58385,-31.647413 -47.55402,-42.517853 -16.08226,-21.93905 -32.62963,-46.2163 -52.83749,-64.48642 -12.32059,-11.13603 -29.18976,-18.79987 -45.7554,-20.31606 -31.07831,-2.84408 -40.29486,3.05908 -63.68826,22.34093 4.75934,1.51759 9.40485,2.35507 14.28223,4.55277 10.82408,4.87737 20.72355,11.181 29.35837,19.26639 9.04793,8.47463 13.10749,13.83819 13.42929,25.9733 0.21358,8.0587 -6.41605,14.5197 -12.49344,20.33151 -3.7181,3.55932 -8.63903,6.81793 -11.65034,9.58051 -3.99069,3.6661 -8.93271,7.67648 -3.91903,13.5164 1.88575,2.194891 5.15981,3.850186 7.92098,5.900342 4.38275,3.252984 2.37616,15.34313 -3.39772,18.549748 -7.38841,4.098903 -16.21715,3.640816 -22.31,-1.846402 7.69054,-1.150846 12.57493,-2.171005 12.37541,-8.461977 -0.11527,-3.646434 -4.75091,-6.676007 -9.30088,-8.750042 -10.97303,-5.002439 -19.26077,-4.264719 -30.1818,-12.122469 -11.03066,-7.94066 -11.27374,-12.28828 -14.25554,-24.75501 -5.31859,0.55645 -10.21563,0.6787 -17.32723,3.03377 -7.11161,2.35367 -14.97077,7.95753 -21.42756,9.34444 -16.26071,3.49889 -19.50106,2.46187 -28.40004,0.15877 -15.66774,-4.05533 -36.0681,2.88765 -56.33358,9.36973 -3.36961,1.07778 -16.99843,0.0365 -26.17283,3.2558 -14.16981,4.97152 -34.05167,17.011083 -45.53479,26.681513 -17.3989,14.654598 -40.26394,58.5115943 -53.18316,108.850676 -1.3574,15.302384 2.99444,25.612172 -6.64507,33.086312 -9.63953,7.474139 -9.37254,26.622489 -12.64099,31.993079 -3.26843,5.36919 -7.05259,2.99585 -14.08831,10.53743 -7.03573,7.54159 -10.61752,6.28115 -10.44046,20.54088 6.06335,-3.98648 14.90331,-8.62076 22.66551,-8.9004 6.87414,-0.24871 6.94719,8.80204 24.5906,-8.64043 9.43577,-9.33178 27.56397,-9.61704 40.14172,-13.73279 12.57914,-4.11577 35.24607,-12.59742 57.94811,-37.977741 22.70205,-25.380317 33.56548,-52.099769 37.96791,-90.7281007 0.70117,6.848836 1.91807,14.5730957 -1.01455,33.4657097 -2.9326,18.892612 -9.2531,40.112198 4.06238,65.52905 l 8.29617,15.834952 C 397.55835,104.5704 387.91041,93.574883 385.00591,85.739614 l -6.6999,-18.0748 c -14.98902,23.533915 -18.43452,27.743827 -39.25643,44.604556 -0.82907,10.46014 -1.03281,21.36994 2.38599,31.37901 3.4188,10.00767 -2.03049,21.54419 0.57049,28.13587 2.60099,6.59169 8.61656,2.83986 10.58099,9.51305 1.96444,6.6732 -1.02577,25.48712 2.02065,31.99168 3.04642,6.50457 10.52056,5.36779 14.14311,7.46852 3.62255,2.10215 4.80712,4.98276 6.74486,7.74675 1.93634,2.76258 -0.75739,23.34562 3.18273,25.46603 3.93871,2.12182 10.08354,0.32459 14.18246,2.3607 4.09889,2.0361 4.72139,12.55105 3.73917,16.9366 -0.98363,4.38557 -5.36357,6.39778 -7.28726,10.85641 -1.92228,4.46003 -1.70729,7.56408 0.60282,11.65875 2.31012,4.0961 7.42497,6.35142 12.52296,8.41843 5.09797,2.06702 12.26158,0.90633 17.52255,3.76446 5.26099,2.85813 9.98941,8.55332 12.76745,12.69297 2.77804,4.13825 3.54947,7.05821 3.40756,11.41006 -0.14333,4.35042 -1.90823,9.36268 -4.23099,13.56557 -2.32276,4.20289 -7.44745,9.31773 0.55363,17.34411 8.00108,8.02497 7.70599,4.56542 12.28969,9.7716 -0.49885,-9.00578 -4.21975,-16.34221 -1.49932,-23.1222 2.72182,-6.77997 10.89293,-7.95892 15.1998,-11.00815 4.30686,-3.05065 6.78701,-7.24089 10.18192,-10.86063 -0.0492,4.65817 0.44965,9.66622 -0.0801,13.17355 -1.07918,7.13126 -3.18414,13.4616 7.44321,14.60541 4.78745,0.5143 9.3332,-2.58973 14.37075,-4.453 -2.63891,4.72561 -7.22822,8.5252 -7.91817,14.18105 -0.68994,5.65303 0.13911,11.86391 4.05394,17.47478 3.91624,5.60807 10.67795,9.77301 15.6326,13.06956 4.95325,3.29795 7.60763,3.56213 11.41427,5.3453 0.18688,5.55887 -0.90775,11.44237 -0.27402,16.67805 0.63373,5.2357 2.28341,9.86996 5.31017,14.19792 3.02955,4.32935 7.88726,6.8123 12.46252,10.01329 -2.50824,-5.84133 -7.59639,-11.38334 -7.52755,-17.52397 0.0689,-6.13921 1.90964,-10.49106 7.89852,-15.93894 5.98886,-5.44927 20.00972,-10.17488 26.62109,-15.47239 6.61135,-5.29893 8.7444,-8.54489 11.11775,-13.68925 2.37335,-5.14436 1.71292,-13.4321 2.15133,-18.05654 2.17663,6.47788 2.48716,8.4915 3.19397,15.26866 0.71103,6.77858 -3.94995,16.28601 -5.92283,21.30391 8.17814,-3.94995 13.36887,-10.26342 15.98952,-16.43356 1.75367,1.03983 0.86981,3.89094 1.51478,9.38519 2.91435,-2.90029 6.22775,-5.13171 9.16177,-7.869 2.93681,-2.73448 6.15327,-5.14013 7.61043,-8.95802 1.45437,-3.81786 0.85857,-7.87741 -0.22482,-12.31356 -1.08339,-4.43614 -6.04086,-9.5805 -8.7107,-14.43257 -2.66702,-4.85068 0.47214,-9.61283 0.29088,-15.45837 -5.34108,-0.91757 -9.877,-3.638 -16.01622,-2.75415 -6.14203,0.88246 -13.17635,7.77485 -19.45328,7.85495 -6.27692,0.0801 -9.80112,-5.80058 -14.94687,-7.41653 -5.14577,-1.61595 -10.35195,-1.4389 -15.52581,-2.15835 6.55375,-6.27833 31.99027,-9.26856 49.38918,-12.1056 15.30941,-2.49701 30.5022,-3.94011 46.01394,-4.15793 6.92753,-0.0984 15.83074,2.18927 20.64066,0.80657 4.81414,-1.37988 3.78627,-4.65844 5.21462,-8.23152 3.99283,-9.98828 5.11992,-21.36637 -0.14755,-28.94104 -4.27703,-6.15041 -28.43519,-3.63108 -42.46587,-2.5532 -13.71736,1.05377 -30.21897,5.29212 -44.10994,8.01653 -20.15483,3.95293 -41.65542,1.63218 -53.09555,-3.07409 -43.0898,-17.72635 -33.92861,-61.77857 -36.69562,-93.33199 -1.41231,-16.10512 -0.17581,-16.78871 -17.40842,-23.58344 5.03335,0.5143 10.529,-1.07917 15.10146,1.54289 6.8699,3.94152 14.55904,20.27811 18.83358,27.38691 4.52889,-15.18155 3.4722,-21.15074 16.57689,-29.71108 -10.56132,11.83722 -10.82409,20.80365 -13.39837,34.74021 8.78237,14.41431 20.9924,37.37379 36.96881,43.74599 5.77153,2.30196 15.68189,3.74679 21.92077,4.51905 19.41685,2.40344 38.14505,-3.74862 57.21462,-8.45777 13.93946,-3.44228 29.74631,-2.43767 46.69983,-1.44213 5.75556,0.33797 9.23248,-2.74286 12.04362,-8.56413 1.5168,-3.14096 1.77487,-7.18707 -0.77425,-10.26202 -5.36769,-6.47491 -8.52414,-11.45833 -10.03859,-17.86262 -12.9487,2.48436 -23.59996,3.43848 -33.21137,3.69984 6.8938,-2.83987 13.50796,-4.46004 20.68281,-7.26618 7.17483,-2.80614 15.32205,-7.4123 21.1128,-11.2344 5.79072,-3.82349 9.48775,-6.04086 13.67798,-10.48964 4.18744,-4.4516 9.55942,-9.0367 12.6466,-14.47755 3.08999,-5.44084 3.56775,-11.52667 3.74059,-18.26028 0.17283,-6.7322 -0.11803,-16.17921 -2.7148,-21.6032 -2.59396,-5.42258 -7.59639,-7.06804 -11.61521,-8.35097 -4.0202,-1.28293 -6.77295,1.96163 -10.95336,2.40004 -4.18321,0.43842 -8.091,3.07454 -14.1389,0.23045 C 649.93106,107.666 642.76184,101.87667 636.6465,93.284012 630.53398,84.689946 626.16248,70.643791 619.93052,59.837975 609.18793,41.210942 595.80081,23.810626 582.99823,6.5508313 c -1.05388,-4.256283 -2.63752,-10.138356 -3.16446,-15.912231 -0.91898,-10.0610713 -1.09183,-20.5127823 2.03048,-30.3209223 2.39302,-7.513487 5.87364,-15.449927 13.74123,-18.531482 3.1476,-1.233742 7.12988,-1.72275 9.94303,-0.680102 2.81598,1.041236 5.57716,4.218338 4.47129,7.888661 -1.21548,4.03567 -4.01179,4.14528 -5.91159,6.182786 -3.22488,3.456734 -4.51483,5.99308 -5.73312,10.302759 3.48483,-0.05621 8.19499,-0.321784 11.05734,0.43139 3.73497,0.983624 7.21278,3.459548 9.10836,8.751446 -4.45722,-3.952764 -6.67178,-5.766848 -12.23487,-5.907367 -2.549,-0.06323 -5.64601,0.848728 -8.4662,1.273091 -1.05389,3.428634 -1.67357,7.632925 -3.16165,10.2859 -1.48808,2.652975 -4.38557,2.01643 -5.47317,5.116251 -1.08762,3.094202 -1.15085,8.1331693 -0.60282,12.2011573 z m 38.94449,-4.646922 c 1.7073,0.67308 2.3579,0.820624 4.52046,2.466087 2.16257,1.645462 5.14576,3.288116 6.85868,7.219802 1.71572,3.933092 1.63563,10.0146997 1.27027,12.4920297 -1.50354,-0.441227 -3.5537,-0.143329 -5.11345,-1.476843 -1.55552,-1.333514 -2.48433,-4.3532397 -4.4797,-5.6460037 -1.99816,-1.291357 -3.66329,-1.008917 -5.87082,-1.288547 1.13397,3.226288 1.6848,6.4539807 1.15786,9.3795597 -1.14382,6.386532 -4.89845,9.621252 -10.97725,10.385668 -2.65438,0.333026 -6.8699,-0.540993 -9.18002,-0.961142 1.07075,2.391612 2.88482,4.486732 3.95698,6.878345 5.14014,-0.743339 8.94957,-0.637951 11.71356,-1.930714 2.76398,-1.292764 5.7275,-4.188835 9.27416,-5.415555 3.54809,-1.22672 6.71254,-1.207047 10.59364,-1.812679 -3.05766,2.634707 -5.06425,5.270821 -8.1177,7.905529 2.23985,6.510189 4.4797,13.01897 6.71815,19.527754 4.7481,2.970544 9.2025,4.535912 15.18575,8.203426 5.98605,3.668918 13.16231,10.231098 20.95682,13.810085 7.79453,3.578987 12.43582,5.526563 20.58023,7.062421 8.14301,1.53586 14.62227,8.131764 22.63601,9.203914 8.01372,1.072152 22.98168,1.288547 29.15743,0.685726 7.01183,-0.68432 16.1216,-4.302653 16.93941,-11.990379 -5.87925,1.450144 -14.85833,0.148948 -19.39285,-10.914014 -2.01221,-4.912501 -1.02577,-13.946388 -4.10594,-19.755392 -3.07873,-5.810409 -7.37155,-7.67508 -12.50045,-14.833053 -5.12891,-7.157975 -13.5192,-18.448578 -18.22936,-28.0389147 -4.70735,-9.588931 -5.81603,-20.4509553 -9.79832,-29.0436163 -3.98226,-8.591254 -9.98939,-15.531427 -14.64476,-22.154031 -10.16504,-14.473323 -18.36285,-24.364369 -35.10975,-31.665679 -8.05448,-3.51153 -17.22467,-4.44738 -25.837,-6.67178 -3.50452,1.56959 -8.31023,3.30358 -9.16317,7.40248 -0.85294,4.0989 0.78549,10.15241 3.76025,13.229739 4.97855,5.144361 12.35574,10.704651 15.25603,18.881376 1.86326,5.246932 2.40424,22.836945 0.7897,27.610334 -1.67498,4.956061 -5.56873,7.953305 -8.80485,11.2540673 z m 1.62158,41.6340057 c -1.55554,1.341946 -2.7415,2.720424 -5.24412,3.834731 -2.49982,1.114304 -5.9144,1.402367 -9.23203,2.231421 4.65255,7.242285 9.53976,14.56045 13.99699,22.175107 4.46002,7.613253 8.32426,15.950171 12.58055,23.923149 -0.20095,-4.569638 0.0689,-9.441388 -0.5958,-13.711723 -0.66464,-4.26893 -2.59957,-8.005296 -4.51764,-14.414312 -1.91526,-6.409015 -4.27316,-15.128141 -6.98795,-24.038373 z M 503.98792,-124.62105 c -0.65623,7.12425 0.54942,18.26169 2.02485,25.23699 1.76772,8.34956 3.46939,12.67891 10.24516,17.70945 12.40771,9.21094 20.32869,7.65822 29.87407,12.9993 4.54154,2.541963 10.29714,6.802466 11.97633,11.306056 1.67919,4.50359 -1.10869,9.393615 -4.55278,11.315898 6.024,0.896498 12.77869,-5.894721 9.9599,-12.867208 -1.38831,-3.431449 -7.99687,-4.960282 -10.02313,-8.422636 -2.02204,-3.46095 -2.01783,-7.02449 -1.06512,-10.54024 1.72133,-6.33735 14.25973,-12.09577 18.69027,-17.10523 6.81792,-7.70881 9.43577,-14.15716 5.57434,-24.08475 -5.42259,-13.94638 -26.37238,-25.13722 -38.91078,-30.61038 -5.74156,-2.50544 -8.96081,-2.68388 -13.43912,-4.02584 9.16878,5.37341 18.83501,9.65358 23.4735,21.66503 3.87266,10.03157 0.51851,13.8115 0.64778,22.54608 0.0604,4.04972 5.39308,6.07459 7.76079,8.63341 2.0614,2.22439 1.89419,3.87548 0.24731,6.94579 -0.18127,-2.7696 -1.36442,-4.83662 -3.49045,-6.34156 -3.51014,-2.48858 -7.29147,-1.9532 -9.16176,-7.0554 -2.83846,-7.75658 2.79069,-15.10284 -3.53824,-23.81214 -4.73404,-6.51581 -11.03064,-13.80868 -19.52494,-13.99978 -4.02021,-0.0913 -7.04276,0.5157 -11.33697,1.78598 l -5.72469,-6.88959 -0.1321,-0.0899 c -11.64469,-10.62736 -19.61205,-19.38582 -35.94725,-26.68994 -16.33518,-7.30271 -24.38546,-8.40859 -43.11506,-7.99265 -18.72961,0.41452 -37.3173,1.9813 -59.01043,20.68843 -21.69173,18.70712 -77.59952,90.34167 -91.15809,99.407883 -13.55715,9.066198 -16.56002,12.137915 -33.50084,12.142139 -16.94081,0.0044 -43.38064,-23.958282 -44.41626,-53.905422 -1.03702,-29.94855 -1.45295,-40.59277 19.36476,-76.67071 20.81911,-36.07933 58.53407,-47.15775 86.51678,-50.89835 27.98411,-3.74056 44.79987,6.11535 65.49954,6.16172 20.69828,0.0478 41.15484,-3.52559 47.18728,-19.98725 -2.9523,1.75788 -6.90786,3.73918 -18.03125,3.15602 -11.12338,-0.58313 -26.54661,-13.46159 -43.89635,-22.09078 -17.34972,-8.6278 -36.65686,-9.63812 -61.42031,-10.10604 -24.76343,-0.46792 -55.66329,1.42484 -86.27648,17.95115 -30.6132,16.52628 -51.5096,34.0615 -69.26543,66.40587 -17.75582,32.34579 -20.4088,58.75469 -17.54646,97.91839 2.86235,39.163703 14.94127,68.290227 38.19836,96.9544453 23.25709,28.6642167 46.50013,42.6892937 88.41095,47.9039077 L 253.97872,11.109295 238.22808,33.712982 238.61732,8.5729503 224.37023,26.251489 218.1214,2.2763493 206.57927,21.497773 l -5.73313,-26.7686327 -16.72582,13.527645 5.29471,-22.0879873 -22.13155,2.449225 10.16646,-15.35297 -20.17975,0.245905 11.74166,-20.497329 -17.90477,-2.842671 14.2766,-18.642488 -21.92078,-6.49895 18.14928,-17.37923 -17.92023,-14.60401 14.01665,-10.90137 -13.1075,-17.44107 13.98152,-16.27616 -5.21883,-21.49359 11.87234,-10.34913 3.53402,-24.56392 13.3239,-6.69146 11.46344,-19.17504 21.18868,-2.2497 10.45452,-17.24715 21.2814,1.08339 20.11091,-10.93087 20.85705,4.85768 23.6913,-7.15515 17.54645,4.11154 22.89878,3.36541 22.10765,17.67713 -33.91114,-11.83721 -17.05887,8.17953 -14.10096,-8.6067 -9.70837,6.5945 -17.17829,1.71993 -15.40496,-0.99487 -11.23018,13.70892 -22.89175,0.23607 -8.16548,18.46825 -20.35541,7.14111 -1.90403,21.22802 -14.59697,11.43532 4.86331,19.97602 -12.60583,20.74744 9.67043,18.14787 -9.51728,16.6092 12.66206,8.26243 -2.87218,26.695571 17.60968,4.437557 3.96683,19.803162 19.1891,-1.993947 11.92152,13.568395 14.73469,-14.387612 c 26.86137,-13.394156 37.92293,-20.886566 58.85726,-43.528186 23.83041,-25.77517 37.48873,-49.60558 69.2317,-67.25319 22.7667,-12.65785 41.33612,-17.21343 66.91035,-12.79415 24.01167,4.14809 32.0521,18.55115 49.73626,33.72426 1.8745,-3.39351 2.25531,-4.29282 5.34388,-6.79123 -0.96956,4.40664 -2.50965,8.97769 -2.90168,13.2157 z"
             id="path2492" />
          <g
             style="fill:#ffffff"
             transform="matrix(-0.83169149,-0.22285107,-0.22285107,0.83169149,1787.3335,234.05648)"
             id="g3144">
            <path
               sodipodi:nodetypes="sscsccccccccccccccccscsccccccccsccccccssccccsccccccccccccccccccsccscssccccccccccccsccccccccsccsccscccssssssccssssscccscsssscssscsscsssssccscssscscccccccccscccccsscsscssscssscsscscsccscccccssssss"
               inkscape:connector-curvature="0"
               id="path3140"
               d="m 1162.7074,211.53332 c 7.8245,2.26534 15.4787,5.5682 22.2789,11.8302 6.1456,5.65922 9.2663,10.52351 11.2093,16.09748 1.6389,4.70139 2.4272,8.28954 3.418,15.22417 0.7165,5.01458 1.1907,7.59722 0.3915,10.55893 -0.3518,1.3064 -1.3716,2.66186 -2.5206,3.49566 l 0.5784,5.3292 c 0.8163,0.1525 1.6433,0.37766 2.397,0.90628 2.5415,1.78232 2.8988,4.28264 3.2015,6.77123 0.3047,2.50362 0.6993,4.66615 -0.8495,7.11132 -0.6387,1.00843 -1.523,1.6896 -2.3745,2.16207 l 0.3701,3.74223 c 1.7315,0.18645 3.5756,1.12468 4.4387,2.3509 1.9051,2.70661 1.443,4.84779 1.5336,5.90196 0.075,0.86992 0.199,1.62187 0.2171,2.53968 0.018,0.91781 -0.064,2.2683 -0.7895,3.53713 -0.7771,1.35903 -1.753,2.10895 -2.8284,2.67401 0.1828,1.18548 0.3256,2.26076 0.4985,3.45985 0.044,0.30469 0.045,0.57045 0.084,0.86738 0.252,0.0743 0.4707,0.0856 0.7389,0.198 1.5065,0.63133 2.6275,1.98093 3.1991,3.23312 0.5717,1.2522 0.8071,2.55543 0.9709,4.0616 0.3075,2.82774 0.081,5.27833 -1.2604,7.26524 -0.511,0.75697 -1.0078,1.16269 -1.536,1.59474 l 0.5996,4.06773 c 0.5095,0.0845 1.0312,0.16548 1.5271,0.40918 1.4697,0.72224 2.4341,1.9826 2.9528,3.16713 0.5186,1.18453 0.7188,2.38056 0.853,3.71324 0.2756,2.73496 0.5132,4.9095 -0.6921,7.3119 -0.635,1.26582 -1.5822,2.1102 -2.5953,2.78927 l 0.3568,3.79148 c 0.5248,0.0724 1.0707,0.10316 1.6388,0.3864 1.707,0.85083 2.553,2.41447 2.9326,3.63689 0.3799,1.22241 0.4996,2.39155 0.6031,3.85748 0.1405,1.98093 0.4496,3.73939 -0.4966,5.99151 -0.5006,1.19148 -1.3292,2.08523 -2.2866,2.8192 0.1537,1.23015 0.2606,2.39367 0.3736,3.53198 0.5185,0.14063 1.0434,0.21724 1.5007,0.50771 2.6415,1.67738 3.0758,4.19561 3.3132,6.74837 0.2515,2.70394 0.3298,4.77585 -0.6357,6.90461 -0.4919,1.08434 -1.1485,1.8826 -1.8362,2.51751 l 0.2312,1.6987 c 0.1136,0.0372 0.2086,-0.0654 0.322,-0.0193 1.6191,0.65961 2.5143,2.01893 2.9793,3.06861 0.4651,1.04968 0.6278,2.02663 0.7879,3.16782 0.3811,2.7165 0.6537,4.68032 0.01,6.86596 -0.3779,1.27964 -1.076,2.25035 -1.8335,3.09898 l 0.6373,5.50339 c 0.9299,0.82424 1.7022,1.82138 2.191,2.85741 0.8656,1.83453 1.1634,3.74915 1.1528,5.7471 -0.013,3.99587 -1.2593,8.33085 -3.5726,12.34787 -1.5961,2.77162 -2.402,5.60383 -2.7287,9.98688 -0.2753,3.69389 -0.3832,8.1174 -0.907,11.26696 -0.4434,2.66403 -1.7769,4.24602 -3.3345,5.5479 -0.6356,0.53111 -1.4238,1.06105 -2.6823,1.34042 -3.3725,4.27062 -5.6589,5.74389 -7.39,6.88996 -0.2043,0.73086 -0.4601,1.4547 -0.8895,2.13756 -0.7825,1.24403 -1.9225,2.03347 -2.7396,2.53942 -1.1094,0.68712 -1.7925,1.32842 -3.5145,2.27897 -1.3559,0.74838 -3.0053,1.48878 -5.2932,0.64084 -0.01,-0.003 -0.039,-0.01 -0.049,-0.0132 -1.8723,1.07721 -4.295,2.21031 -7.6421,3.4961 -0.1762,0.40079 -0.2408,0.75785 -0.9054,1.60536 -1.0771,1.37308 -2.1871,1.83473 -4.0934,2.86303 -1.1216,0.60505 -2.092,1.15461 -3.6842,1.33593 0.07,0.14915 0.2005,0.23624 0.2656,0.38796 1.2715,2.9471 1.8921,6.6094 1.8921,11.06664 0,28.60634 6.2372,83.2559 30.9702,105.65826 -11.3867,-6.00645 -28.7361,-7.78055 -31.8813,-29.29184 -5.4919,-37.56032 -3.2674,-48.3687 -3.2674,-76.53568 0,-3.65402 -0.14,-3.15625 -1.3795,-8.44776 -0.778,-3.32117 -3.3031,-4.61143 -6.6974,-6.33521 0.4616,-0.74027 44.3799,-18.27108 44.2526,-28.79717 0.3112,-2.03446 0.5051,-6.40959 0.7908,-10.24214 0.3901,-5.23213 4.3019,-11.25822 6.5391,-15.14326 1.6393,-2.84633 2.4796,-6.10295 2.4903,-8.30844 -0.068,-0.57242 -0.2304,-2.10505 -0.4537,-2.44469 -1.4057,-0.52228 -1.5205,-0.78393 -4.0053,0.56354 l -1.0276,-8.77585 c 2.2291,-4.62916 4.1177,-5.47935 3.4703,-9.2074 -0.6663,-3.83522 -2.1727,-3.46575 -4.9085,-2.37118 l -1.091,-7.94807 c 2.4834,-2.26109 4.7444,-4.78228 3.9172,-9.29884 -0.6809,-3.71736 -2.8479,-2.37665 -4.7881,-1.44126 -0.1034,-2.70155 -1.6197,-5.3789 -2.1438,-9.33895 3.3997,-3.45754 5.1765,-4.65541 4.6956,-9.24863 -0.6518,-6.22755 -6.6269,0.22843 -7.4181,-2.46289 l 0.247,-8.80389 c 2.0793,-3.39572 6.1586,-3.28935 5.2183,-9.4254 -0.8338,-5.43985 -6.1437,-0.58575 -7.6742,-2.68987 l 0.1653,-9.0898 c 0.7349,-2.4887 4.944,-3.46496 4.1599,-9.0226 -0.8964,-6.35328 -5.7017,-0.89109 -7.1719,-2.39688 -1.7723,-3.38472 -0.1248,-4.39645 -1.4832,-9.63711 1.2347,-2.79572 6.821,-3.30438 6.558,-8.90803 -0.2932,-6.24714 -5.9108,-1.07304 -8.8371,-2.68469 l -0.8464,-9.25544 c 0.7288,-2.55987 7.3292,-2.4744 6.6925,-8.81918 -0.584,-5.81969 -6.1975,-1.97218 -7.8825,-4.27684 l -1.6458,-11.00063 c 2.342,-0.66228 3.7809,-3.88499 4.179,-5.744 1.8283,-8.53827 -2.2868,-24.99458 -12.0524,-33.64118 -5.7962,-5.13214 -14.6257,-8.92398 -22.7353,-11.89972 -7.6292,-2.79946 -19.4767,-2.94642 -29.53,-2.89671 -16.5833,0.0821 -50.1094,7.59317 -68.2008,14.72451 -16.0147,6.31268 -24.9597,16.78073 -29.5616,26.18664 -1.2592,2.57385 -1.6965,3.61021 -2.0871,6.41011 -0.3906,2.79989 -0.5553,7.39547 -0.7975,15.78417 l -0.3979,14.09608 c 3.5341,0.64182 6.3725,3.39835 7.1636,6.56572 0.8983,3.59677 -0.052,7.55871 -2.6444,10.85424 -1.3912,1.76854 -0.9029,3.28004 0.9444,4.16012 2.5818,1.22999 4.8359,3.03663 5.765,5.87417 0.929,2.83755 -0.1016,5.89888 -1.856,8.10881 -0.6368,0.80211 -1.2098,2.23831 -1.2485,2.88614 -0.019,0.32392 -0.1153,0.34684 -0.1416,0.33166 0.052,4.4e-4 0.1824,0.024 0.3448,0.0924 3.4265,1.44383 5.1714,4.52978 5.8352,7.58253 0.6639,3.05275 0.3851,6.47276 -1.9493,9.24535 -1.0195,1.21104 -1.052,1.98097 -1.0144,2.20969 0.038,0.22872 0.087,0.55554 1.3291,1.14811 2.8465,1.35798 4.8991,4.29406 5.0769,7.06257 0.1778,2.7685 -0.7964,4.95135 -1.8971,6.88341 -0.7707,1.35273 -1.0377,2.08043 -1.1262,2.23255 0.1204,0.18399 0.4668,0.61482 1.3845,1.53254 2.4759,2.47592 3.9292,4.96902 4.2025,7.56743 0.2733,2.59841 -0.6201,4.44523 -1.035,5.63607 -0.7261,2.08431 -1.1397,3.27183 -1.1606,3.54328 -0.021,0.27144 -0.252,0.31438 0.9965,1.79817 1.8254,2.1693 3.1124,4.34573 3.2736,6.89615 0.1613,2.55043 -0.9786,4.70307 -2.11,6.29838 -0.6612,0.93233 -0.7575,1.91221 -0.624,2.52551 0.1336,0.61332 0.3048,0.78492 0.7512,0.94045 2.9145,1.01545 5.0874,4.03259 5.3303,6.70808 0.243,2.67549 -0.527,4.87756 -1.4899,6.93973 -0.2156,0.46158 -0.5199,1.80107 -0.3679,2.75251 0.152,0.95145 0.3543,1.44868 1.3642,2.00229 0.315,0.17177 0.6202,0.41008 0.8796,0.65808 3.2214,3.07069 4.8869,6.59331 4.5084,9.97252 -0.2579,2.30316 -1.3481,3.98173 -2.5524,5.38787 0.758,5.97998 2.5318,12.20253 5.6706,18.83724 6.9686,14.7301 22.4165,27.76392 38.7054,30.3288 2.076,0.32689 3.8392,0.66331 5.2649,1.04112 1.4255,0.37858 2.3699,0.57216 3.7596,1.53538 0.3475,0.24079 0.7522,0.51407 1.2174,1.17097 0.4652,0.6569 1,1.95934 0.7483,3.31561 -0.691,2.80853 -2.5978,3.37047 -4.5438,3.16472 -1.5752,10.79111 2.9607,64.05113 4.1163,98.72683 10.3951,20.49425 22.9808,22.68201 45.3116,22.02999 -18.7496,12.26208 -54.1363,8.80605 -62.8137,-11.8834 -0.1776,-0.4338 -0.3034,-0.88559 -0.3236,-1.35387 -1.0112,-31.9898 0.025,-69.80397 0.025,-97.8283 -10e-5,-4.70882 0.083,-8.36623 1.5941,-11.66364 0.1727,-0.37668 0.4712,-0.6651 0.6977,-1.02742 -18.3614,-4.24974 -39.538,-19.09193 -47.4341,-35.78273 -3.7484,-7.92316 -6.0244,-15.60508 -6.7364,-23.13549 -0.1191,-1.28905 0.4261,-2.63239 1.4069,-3.47728 1.0243,-0.8853 1.443,-1.64316 1.4807,-1.97917 0.037,-0.33331 0.078,-1.18104 -2.0002,-3.17585 -0.013,-0.009 -0.036,-0.005 -0.049,-0.0132 -2.7028,-1.86285 -4.2412,-4.68985 -4.6529,-7.26574 -0.4559,-2.85304 0.025,-5.39398 1.0044,-7.49222 0.5945,-1.27309 0.7721,-2.22271 0.7849,-2.53519 -3.1221,-1.1486 -5.2799,-3.92117 -5.9215,-6.86647 -0.6514,-2.99032 -0.01,-6.22084 1.9194,-8.93658 0.6678,-0.94166 0.6001,-1.03792 0.5991,-1.05382 -9e-4,-0.0155 -0.053,-0.70411 -1.3114,-2.19933 -2.0151,-2.39481 -3.1432,-5.21412 -2.9507,-7.7072 0.1926,-2.49308 1.1025,-3.99718 1.6525,-5.57622 0.5263,-1.51095 0.583,-1.97204 0.5676,-2.11824 -0.015,-0.14621 -0.059,-0.82683 -1.8366,-2.60403 -2.0932,-2.09316 -3.7707,-4.29088 -3.8515,-7.10381 -0.081,-2.81293 1.2016,-4.60898 2.2613,-6.46903 0.6909,-1.21268 0.8524,-2.23329 0.8438,-2.36101 -0.036,0.004 -0.075,-0.0437 -0.4662,-0.23051 -2.9764,-1.41997 -5.3233,-4.00108 -5.8423,-7.16204 -0.5189,-3.16097 0.7277,-6.26394 2.8193,-8.74826 0.1559,-0.18507 0.4829,-1.23403 0.2492,-2.30915 -0.2338,-1.07514 -0.8395,-1.72443 -1.0458,-1.81137 -3.5133,-1.48043 -5.3693,-5.41679 -5.1903,-8.4129 0.1789,-2.99611 1.4063,-5.43268 2.9951,-7.43398 0.324,-0.40816 0.3921,-0.55839 0.4311,-0.62366 -0.059,-0.0653 -0.2957,-0.4233 -1.4312,-0.96427 -6.1356,-2.92302 -8.1416,-11.10356 -3.8534,-16.55517 1.1945,-1.51863 1.3604,-3.06977 1.1773,-3.80281 -0.1831,-0.73307 0.076,-0.66774 -0.7187,-0.66774 l -2.7957,-0.01 c -2.1724,-0.006 -4.1125,-2.02852 -4.0488,-4.19998 l 0.5012,-18.02827 c 0.2431,-8.74499 3.0387,-19.71878 7.3929,-26.60535 7.7074,-12.19032 19.2032,-20.77875 36.6172,-27.49431 21.3364,-8.22814 39.0925,-11.79953 63.0703,-12.72014 13.5639,-0.52077 24.2191,-0.1008 38.5863,3.581 1.1216,0.287 2.2321,0.57391 3.3498,0.89757 z"
               style="color:#000000;font-style:normal;font-variant:normal;font-weight:normal;font-stretch:normal;font-size:medium;line-height:normal;font-family:Sans;-inkscape-font-specification:Sans;text-indent:0;text-align:start;text-decoration:none;text-decoration-line:none;letter-spacing:normal;word-spacing:normal;text-transform:none;writing-mode:lr-tb;direction:ltr;baseline-shift:baseline;text-anchor:start;display:inline;overflow:visible;visibility:visible;fill:#ffffff;fill-opacity:1;fill-rule:nonzero;stroke:none;stroke-width:12.48437405;marker:none;enable-background:accumulate" />
            <path
               inkscape:connector-curvature="0"
               style="fill:#ffffff;stroke-width:1.06666672"
               d="m 1140.672,212.75415 5.3333,0.7 c 8.1085,1.04579 16.9509,5.45256 22.2334,11.1 5.3326,5.70093 9.5777,16.61123 9.0333,23.2 -0.2129,2.57723 -0.9148,4.1588 -1.9333,4.33334 -2.6619,0.45618 -3.8337,-1.07863 -5.2,-6.66667 -3.4749,-14.21241 -10.1935,-23.08466 -21.8667,-28.9 z"
               id="path3138" />
            <path
               inkscape:connector-curvature="0"
               style="fill:#ffffff;stroke-width:1.06666672"
               d="m 1125.7387,214.88749 5.3,0.7 c 13.7601,1.82678 21.8002,7.77013 26.1334,19.3 2.9911,7.95897 4.0267,16.86551 2.2,19.06666 -3.0806,3.71176 -7.9826,-0.25265 -9.1001,-7.33333 -1.1579,-7.33663 -3.5473,-14.56558 -6.4,-19.43333 -2.1644,-3.6934 -4.2275,-5.39307 -10.4,-8.46667 z"
               id="path3136" />
            <path
               inkscape:connector-curvature="0"
               style="fill:#ffffff;stroke-width:1.06666672"
               d="m 1161.9721,216.12082 c 9.293,2.52866 15.4977,7.39068 20.4999,13.13333 6.807,7.81453 10.4601,20.96667 5.8,20.96667 -2.5724,0 -4.3957,-2.86869 -8.0999,-12.8 -3.3843,-9.07362 -10.6676,-17.43324 -18.2,-21.3 z"
               id="path3134" />
            <path
               inkscape:connector-curvature="0"
               style="fill:#ffffff;stroke-width:1.06666672"
               d="m 1105.4721,217.05415 5.8666,0.63334 c 13.6506,1.46743 18.7795,4.31964 22.7,12.6 5.5743,11.77311 7.9274,26.49254 4.4333,27.83333 -4.8291,1.85313 -6.6775,-0.21886 -7.8999,-8.86667 -1.8256,-12.91521 -9.0189,-23.53189 -19.9668,-29.43333 z"
               id="path3132" />
            <path
               inkscape:connector-curvature="0"
               style="fill:#ffffff;stroke-width:1.06666672"
               d="m 1079.8721,221.35415 8,0.46667 c 13.644,0.7945 20.9852,5.44867 25.7999,16.33333 2.9754,6.72605 4.2438,18.36395 2.3333,21.4 -1.4299,2.27246 -4.4721,2.96013 -7.5999,1.7 -2.2105,-0.89057 -3.4746,-4.21129 -5.0666,-13.26666 -2.2353,-12.71342 -6.7418,-18.6944 -18.1334,-24.1 z"
               id="path3130" />
            <path
               inkscape:connector-curvature="0"
               style="fill:#ffffff;stroke-width:1.06666672"
               d="m 1065.7387,226.95415 c 4.1081,-0.0757 9.0753,1.0592 12.2667,3 4.6184,2.80866 10.5864,11.15501 12.5334,17.53334 2.277,7.45972 2.1289,15.80497 -0.3334,18.03333 -2.2191,2.00824 -4.1738,2.2018 -6.8666,0.63333 -1.463,-0.85205 -1.8667,-2.53873 -1.8667,-7.76666 0,-12.08503 -7.1191,-22.11975 -18.4,-25.86667 -5.7061,-1.89523 -6.0583,-3.62552 -1.0334,-5.06667 1.0821,-0.31034 2.3307,-0.47475 3.7,-0.5 z"
               id="path3128" />
            <path
               inkscape:connector-curvature="0"
               style="fill:#ffffff;stroke-width:1.06666672"
               d="m 1191.5387,266.32082 1.2666,12.43333 c -2.179,0.45737 -5.1041,1.06622 -8.4,1.76667 -8.8553,1.882 -24.2774,3.88921 -24.9333,3.23333 -0.2542,-0.25424 -0.6998,-3.08318 -0.9666,-6.3 -0.3604,-4.34648 -0.088,-5.98641 1,-6.33333 0.8052,-0.25676 8.9933,-1.52482 18.2333,-2.83333 z"
               id="path3126" />
            <path
               inkscape:connector-curvature="0"
               style="fill:#ffffff;stroke-width:1.06666672"
               d="m 1140.7721,275.82082 c 1.966,0 2.3707,0.78309 2.9333,5.53333 0.3606,3.04548 0.4392,5.76074 0.1666,6.03334 -0.2725,0.27261 -14.5227,3.28984 -31.6667,6.7 -22.1368,4.40333 -35.6534,6.51297 -46.6666,7.3 -8.5291,0.60952 -17.3221,1.36902 -19.5333,1.66666 -4.4112,0.59378 -5.0727,-0.24295 -6.5,-8.06666 l -0.7,-3.73334 18.4,-1.93333 c 10.1216,-1.04843 32.5488,-4.50908 49.8333,-7.7 17.2845,-3.19092 32.4729,-5.8 33.7334,-5.8 z"
               id="path3124" />
            <path
               inkscape:connector-curvature="0"
               style="fill:#ffffff;stroke-width:1.06666672"
               d="m 1194.4387,288.65415 1.2,11.66667 c -1.0717,0.41026 -2.1793,0.86785 -3.2334,1.2 -7.4567,2.35118 -25.5983,6.3 -28.8999,6.3 -1.747,0 -2.0334,-0.82825 -2.0334,-6.23333 v -6.23334 l 17.8667,-3.63333 z"
               id="path3122" />
            <path
               inkscape:connector-curvature="0"
               style="fill:#ffffff;stroke-width:1.06666672"
               d="m 1145.3721,298.22082 c 0.811,0 2.6977,11.63562 2,12.33333 -0.1651,0.16495 -13.9161,3.47452 -30.5668,7.33334 l -30.2665,7 h -20.5334 -20.5 l -1.2,-6.03334 c -0.6677,-3.32444 -1.1133,-6.17095 -0.9667,-6.3 0.1467,-0.12904 8.6667,-0.54229 18.9334,-0.93333 22.1386,-0.84323 19.0502,-0.4095 54.1666,-7.63333 15.4164,-3.17133 28.4439,-5.76667 28.9334,-5.76667 z"
               id="path3120" />
            <path
               inkscape:connector-curvature="0"
               style="fill:#ffffff;stroke-width:1.06666672"
               d="m 1197.2053,309.75415 c 0.4481,2.904 2.2577,9.99069 0.7912,12.01519 -2.3559,2.92426 -18.8349,8.45148 -29.5245,8.45148 -3.2157,0 -3.5591,-0.32482 -4.1666,-4 -1.24,-7.50163 -1.3036,-7.43635 6.6999,-8.86667 4.0671,-0.72681 12.5871,-3.05353 18.9334,-5.16666 z"
               id="path3118" />
            <path
               inkscape:connector-curvature="0"
               style="fill:#ffffff;stroke-width:1.06666672"
               d="m 1147.4053,322.75415 c 1.7083,0 2.2081,1.00457 2.8,5.46667 0.3983,3.00181 0.521,5.64572 0.2667,5.9 -0.2542,0.25428 -13.5361,3.10277 -29.4999,6.3 l -29.0333,5.8 h -21.1001 -21.1 l -0.7333,-4 c -0.3987,-2.2 -0.9831,-5.08 -1.3,-6.4 l -0.6,-2.4 h 19.9667 c 19.3337,0 20.81,-0.16281 49.0666,-5.33333 16.0305,-2.93334 30.1175,-5.33334 31.2666,-5.33334 z"
               id="path3116" />
            <path
               inkscape:connector-curvature="0"
               style="fill:#ffffff;stroke-width:1.06666672"
               d="m 1200.072,331.55415 c 0.625,3.19226 1.3172,10.85511 1.3172,10.85511 -9.6669,4.53867 -12.9806,5.95665 -22.7491,6.85884 -1.6368,0.19501 -6.0613,-5.75667 -8.7419,-7.41752 1.8747,-1.26892 4.527,-1.98887 13.2072,-4.06309 7.0032,-1.67346 13.0875,-3.95335 16.9666,-6.23334 z"
               id="path3114" />
            <path
               inkscape:connector-curvature="0"
               style="fill:#ffffff;stroke-width:1.06666672"
               d="m 1148.9002,346.15197 c -4.4396,3.71354 -5.4953,12.62529 -10.6615,14.10218 -1.6454,0.47039 -11.54,2.72905 -22.1,4.66667 -23.8315,4.37277 -28.651,5.08226 -29.3666,4.36667 -0.3111,-0.311 -7.6576,-0.66224 -16.3334,-0.76667 -17.6261,-0.21213 -16.5512,0.32235 -18.2,-8.7 l -0.7,-4 h 18.4334 c 17.1925,-0.003 20.4844,-0.35179 48.5666,-5.16667 16.7129,-2.86554 27.149,-4.50234 30.3615,-4.50218 z"
               id="path3112" />
            <path
               inkscape:connector-curvature="0"
               style="fill:#ffffff;stroke-width:1.06666672"
               d="m 1202.872,352.62082 c 1.0135,7.24026 1.0159,10.68677 1.0159,10.68677 -3.115,2.38204 -25.4024,9.70357 -27.9946,9.66378 3.6459,-3.78519 2.8875,-12.40962 4.7673,-12.96011 7.0686,-1.25299 18.6381,-5.18053 22.2115,-7.39044 z"
               id="path3110" />
            <path
               inkscape:connector-curvature="0"
               style="fill:#ffffff;stroke-width:1.06666672"
               d="m 1141.2601,370.75634 c 4.6912,-0.65788 6.4516,6.61413 13.1412,9.12569 -0.9117,0.34984 -15.8105,3.6473 -30.7626,6.30546 -14.9521,2.65815 -28.0327,4.77232 -29.0666,4.7 -11.3014,-0.79072 -35.9595,-3.19279 -36.3,-3.53334 -0.6869,-0.68683 -2.3058,-8.40459 -1.9,-9.06666 0.1996,-0.32572 8.1106,-0.16691 17.5667,0.36666 l 17.2,0.96667 25.9666,-4.6 z"
               id="path3108" />
            <path
               inkscape:connector-curvature="0"
               style="fill:#ffffff;stroke-width:1.06666672"
               d="m 1205.7585,373.09111 c 0.5555,3.06735 1.0525,7.76935 1.2575,10.44517 -2.1498,3.09359 -29.1141,13.13802 -32.1106,11.65126 -0.2317,-0.23602 -0.5838,-2.53669 -0.7667,-5.1 l -0.3334,-4.63333 8.8,-2.56667 c 7.7506,-2.88738 16.2469,-5.46791 23.1532,-9.79643 z"
               id="path3106" />
            <path
               inkscape:connector-curvature="0"
               style="fill:#ffffff;stroke-width:1.06666672"
               d="m 1158.1387,388.88749 c 0.8982,0 2.7948,10.53854 2.0334,11.3 -0.2006,0.20056 -12.9986,3.01572 -28.4334,6.26666 -18.0177,3.79496 -30.4225,5.86464 -34.6333,5.8 -5.1982,-0.0798 -34.8524,-4.73424 -35.4667,-5.56666 -0.082,-0.11044 -0.4689,-2 -0.8666,-4.2 l -0.7,-4 4.0333,0.0333 c 2.2266,0.0116 10.4296,0.70069 18.2334,1.53333 16.3426,1.74376 15.7887,1.78619 50.1999,-5.76667 13.5576,-2.97574 25.0817,-5.4 25.6,-5.4 z"
               id="path3104" />
            <path
               inkscape:connector-curvature="0"
               style="fill:#ffffff;stroke-width:1.06666672"
               d="m 1208.3054,393.85415 c 0.6251,3.25433 0.8224,5.11736 1.12,8.15618 -3.0162,4.76957 -29.9481,15.06226 -32.3867,14.47721 -0.187,-0.21328 -0.6781,-2.58541 -1.0666,-5.26667 l -0.7001,-4.86666 c 11.3408,-3.32455 23.9249,-7.14931 33.0334,-12.50006 z"
               id="path3102" />
            <path
               inkscape:connector-curvature="0"
               style="fill:#ffffff;stroke-width:1.06666672"
               d="m 1161.472,411.28749 c 0.7697,0 2.4859,9.61425 1.8334,10.26666 -0.1753,0.17525 -13.2154,3.22444 -29,6.76667 -15.7847,3.54223 -30.4179,6.41136 -32.5,6.36667 -2.0821,-0.0447 -10.9767,-2.34641 -19.7667,-5.1 -14.4278,-4.51975 -16.082,-5.28972 -17,-7.9 -0.5593,-1.59028 -0.8043,-3.09569 -0.5333,-3.36667 0.271,-0.27096 7.9217,0.67337 17,2.1 9.0783,1.42663 18.6596,2.5936 21.3,2.6 2.6405,0.006 16.7471,-2.64 31.3333,-5.86667 14.5862,-3.22666 26.8931,-5.86666 27.3333,-5.86666 z"
               id="path3100" />
            <path
               inkscape:connector-curvature="0"
               style="fill:#ffffff;stroke-width:1.06666672"
               d="m 1210.8054,412.18749 c 0.4104,3.05792 1.2177,7.99525 1.0851,10.06153 -2.9982,4.84166 -22.3755,14.71642 -30.0852,15.70513 -0.9593,0 -3.2208,-6.52748 -3.2332,-9.33333 0,-0.73333 0.6549,-1.33333 1.4666,-1.33333 2.3984,0 21.7714,-8.35854 26.2667,-11.33334 1.5815,-1.04663 3.2781,-2.50584 4.5,-3.76666 z"
               id="path3098" />
            <path
               inkscape:connector-curvature="0"
               style="fill:#ffffff;stroke-width:1.06666672"
               d="m 1165.0721,433.72082 c 0.2657,0.27481 0.6286,2.42611 0.8333,4.76667 l 0.3667,4.23333 -28.8001,6.6 c -15.84,3.6297 -30.4799,6.58469 -32.5332,6.56667 -5.2465,-0.0462 -34.0473,-8.62506 -35.2334,-10.5 -0.5388,-0.85163 -0.9915,-2.81492 -1,-4.33334 l -0.033,-2.76666 15.2,3.06666 c 8.36,1.67093 17.36,3.08667 20,3.16667 2.64,0.08 17.397,-2.41931 32.7666,-5.56667 15.3697,-3.14734 28.1677,-5.50814 28.4334,-5.23333 z"
               id="path3096" />
            <path
               inkscape:connector-curvature="0"
               style="fill:#ffffff;stroke-width:1.06666672"
               d="m 1201.6387,445.55415 c 0.2481,0.002 0.496,0.0281 0.7667,0.0667 2.0934,0.29834 2.3238,1.13715 2.8333,9.4 l 0.4334,6.8 c -2.6178,3.92039 -5.0666,6.67276 -9.1667,8.9 0.1523,-2.59652 0.1667,-4.53337 0.1667,-8.76667 0,-12.1867 1.2446,-16.42676 4.9666,-16.4 z"
               id="path3094" />
            <path
               inkscape:connector-curvature="0"
               style="fill:#ffffff;stroke-width:1.06666672"
               d="m 1184.6053,452.38749 c 0.8378,-0.0667 1.6966,0.0878 2.4667,0.5 1.9157,1.02522 2.1333,2.22575 2.1333,11.83333 0,4.38501 -0.3525,8.04829 -0.6999,11.03333 -3.9043,2.36088 -6.3826,3.65218 -11,5.3 1.5424,-2.90714 2.0999,-7.46225 2.0999,-14.16666 0,-5.25087 0.3044,-10.32239 0.6667,-11.26667 0.7186,-1.87243 2.4903,-3.08655 4.3333,-3.23333 z"
               id="path3092" />
            <path
               inkscape:connector-curvature="0"
               style="fill:#ffffff;stroke-width:1.06666672"
               d="m 1167.3388,459.02082 c 4.6307,0 5.3556,1.68901 5.2,12.03333 -0.1135,7.53735 -0.6056,10.28171 -2.3667,13.26667 -0.1568,0.26569 -0.2664,0.46474 -0.4,0.7 -2.3813,1.82497 -4.1853,2.69125 -7.1334,3.46667 -2.4702,-1.0989 -3.6729,-3.15122 -2.6333,-4.83334 0.3559,-0.57589 0.7141,-5.55581 0.8,-11.06666 0.1728,-11.07504 1.3639,-13.56667 6.5334,-13.56667 z"
               id="path3090" />
            <path
               inkscape:connector-curvature="0"
               style="fill:#ffffff;stroke-width:1.06666672"
               d="m 1146.3054,464.65415 c 0.7747,-0.0257 1.6046,0.002 2.5333,0.13334 2.4337,0.34448 2.5396,0.71471 2.8333,11.83333 l 0.3001,11.46667 -3.5001,2.13333 c -1.9264,1.17457 -5.346,2.1312 -7.5666,2.13333 -3.6618,0.003 -3.9347,-0.19549 -2.9333,-2.06666 0.6072,-1.13476 1.0999,-5.61564 1.0999,-9.96667 0,-11.25919 1.81,-15.48678 7.2334,-15.66667 z"
               id="path3088" />
            <path
               inkscape:connector-curvature="0"
               style="fill:#ffffff;stroke-width:1.06666672"
               d="m 1122.672,468.92082 c 1.8431,-0.0864 3.4877,0.28767 4.4667,1.26667 0.8099,0.80991 1.2666,4.86209 1.2666,11.06666 0,7.95769 -0.2974,9.94125 -1.6666,10.46667 -1.8336,0.70364 -10.641,0.65244 -13.3,-0.0667 -1.3268,-0.35881 -1.5929,-1.83335 -1.3,-7.6 0.2002,-3.94011 0.5918,-8.22401 0.8666,-9.53333 0.632,-3.00974 5.6122,-5.40997 9.6667,-5.6 z"
               id="path3084" />
            <ellipse
               transform="rotate(-11.00343)"
               id="path3142"
               style="color:#000000;display:inline;overflow:visible;visibility:visible;fill:#ffffff;fill-opacity:1;fill-rule:nonzero;stroke:none;stroke-width:7.47116804;marker:none;enable-background:accumulate"
               cx="1071.7445"
               cy="576.08002"
               rx="10.685362"
               ry="12.447895" />
          </g>
          <path
             style="fill:#ffffff;stroke:none;stroke-width:1.40517771"
             d="m 474.40329,171.73443 c 5.54452,25.16649 -0.82352,57.19945 10.7584,78.95342 a 1.4053181,1.4053181 0 0 0 -0.0879,1.44909 c 6.19042,11.00516 15.84482,17.90684 27.00576,21.9559 0.061,0.0219 0.11447,0.0658 0.17565,0.0879 13.31312,5.81314 27.96142,6.4287 44.30701,4.12772 7.98772,-0.65388 15.73141,-1.89298 22.79022,-3.42512 30.82773,-6.69129 52.29895,-8.12369 52.29895,-8.12369 a 1.4053181,1.4053181 0 0 0 1.22953,-1.00998 c 0.466,-0.006 0.93876,-0.0439 1.40518,-0.0439 -0.45394,-0.122 -0.8804,-0.22578 -1.31735,-0.3513 v -0.0439 c -5.7e-4,-1.79673 -0.0324,-3.17454 -0.26347,-4.34728 -0.23312,-1.18349 -0.76697,-2.28016 -1.71256,-2.9421 -1.89118,-1.32383 -4.23845,-1.00995 -8.29933,-1.00995 -2.25579,0 -4.12167,0.16815 -5.66463,0.57084 -7.99714,-6.95483 -5.98571,-15.01783 -5.13767,-19.54074 -56.13171,14.2363 -68.74112,15.04506 -94.36645,-4.47901 -3.1672,-2.4131 -5.93502,-4.94125 -8.43108,-7.55284 1.82393,2.63479 3.80103,5.50515 3.82034,5.5329 1.6e-4,2.3e-4 0.0439,0.0879 0.0439,0.0879 0.057,0.10169 1.31037,2.36894 1.66864,4.03989 0.0916,0.42711 0.11145,0.80135 0.0879,1.00997 -0.0236,0.20861 -0.0691,0.1983 -0.0439,0.17566 0.025,-0.0226 0.009,0.0459 -0.3513,0.0439 -0.36092,-0.001 -0.99624,-0.12054 -1.8882,-0.43912 -3.27377,-1.16921 -6.00011,-2.56782 -7.15761,-3.86424 -0.57878,-0.64819 -0.777,-1.17313 -0.74651,-1.75647 0.0304,-0.58334 0.33204,-1.36915 1.27345,-2.41515 a 1.4053181,1.4053181 0 0 0 -2.06387,-1.8882 h -0.0439 c -0.84667,0.95954 -1.50366,1.51039 -1.8882,1.71256 -0.38455,0.20216 -0.36902,0.18865 -0.61476,0.0879 -0.49151,-0.20163 -1.79743,-1.61024 -3.73251,-3.90815 -1.74634,-2.07378 -1.91005,-3.22792 -1.62474,-4.39117 0.28533,-1.16327 1.33476,-2.51053 2.45907,-4.25946 a 1.4053181,1.4053181 0 0 0 -1.93213,-1.93211 c -1.23803,0.7664 -2.20909,1.26512 -2.89817,1.53691 -0.68907,0.27179 -1.01101,0.2959 -1.27344,0.21956 -0.26243,-0.0762 -0.64022,-0.29497 -1.18562,-0.96605 -0.54542,-0.6711 -1.19282,-1.7607 -2.01995,-3.20557 -0.58473,-1.02145 -1.16772,-1.65172 -1.493,-2.10777 -0.32528,-0.45604 -0.44086,-0.63836 -0.48303,-1.1417 -0.0828,-0.98999 0.50687,-3.62173 2.67862,-9.48494 0.0237,-0.0554 0.0641,-0.0758 0.0879,-0.13174 0.0131,-0.0353 -0.0131,-0.0523 0,-0.0879 a 1.4053181,1.4053181 0 0 0 -0.0439,-1.0978 c 1.35874,2.05723 2.66987,4.05686 3.99597,6.05983 -6.16271,-12.02738 -10.58801,-23.62612 -19.32119,-31.70432 z m 3.55685,6.85024 c 1.5249,2.66625 2.7687,4.97923 5.22552,8.82628 1.83314,2.87046 4.03193,6.23871 6.14764,9.44103 a 1.4053181,1.4053181 0 0 0 -2.15168,0.61476 c -0.009,0.0223 -0.0346,0.0218 -0.0439,0.0439 -0.0151,0.0406 -0.029,0.0476 -0.0439,0.0879 -1.23582,2.86884 -2.47013,4.52652 -3.51294,5.35724 -1.06382,0.84746 -1.90872,0.93837 -2.67863,0.83433 -1.26143,-0.17046 -2.17887,-1.04545 -2.54687,-1.40519 z m 11.37316,73.28879 c 1.20147,-0.093 2.66102,0.11369 3.73251,0.70259 2.23457,1.22814 4.16921,2.53054 4.87421,3.90815 0.35249,0.6888 0.47103,1.39052 0.26347,2.37124 -0.16512,0.7802 -0.85,1.87683 -1.62473,3.02992 -3.13549,-2.78141 -5.89227,-6.02798 -8.21152,-9.83625 0.30847,-0.0719 0.5792,-0.14568 0.96606,-0.17565 z m 14.35917,7.55283 c 1.04138,0.027 2.36733,0.50565 4.25944,1.44909 4.1027,2.0456 5.31627,3.71284 5.53289,5.18159 0.18889,1.28082 -0.49864,2.90101 -1.44909,4.78639 -4.76327,-1.82813 -9.2878,-4.02162 -13.21746,-7.0698 1.5785,-2.64325 2.82537,-3.89239 3.90815,-4.21554 0.28979,-0.0866 0.61894,-0.14075 0.96607,-0.1316 z m 119.00097,0.3952 c 4.08843,0 6.16893,0.17298 6.67459,0.52695 0.25284,0.17699 0.41447,0.34779 0.57086,1.14171 0.10489,0.53209 0.10367,1.61956 0.13173,2.59079 -0.98458,0.0709 -5.90399,0.4952 -15.32523,1.75647 -0.19387,-2.32485 0.0628,-3.72472 0.92216,-4.52291 0.94111,-0.87394 3.08198,-1.49301 7.02589,-1.49301 z m -17.1695,1.66866 c 0.75021,-0.0276 1.39645,-0.0131 1.97602,0.0439 1.15911,0.11237 1.98415,0.38383 2.54688,0.7465 1.04627,0.67429 1.5539,1.89353 1.80038,3.99597 -5.13864,0.72173 -11.05237,1.67395 -17.78427,2.89818 -0.1727,-1.03916 -0.30144,-2.01593 -0.26347,-2.72253 0.0447,-0.8319 0.22687,-1.36393 0.65868,-1.88821 0.86359,-1.04856 3.24543,-2.17271 8.51888,-2.85427 0.94247,-0.12185 1.79666,-0.19205 2.5469,-0.21955 z m -17.78429,3.16165 c 0.31243,0.004 0.59681,0.0141 0.83432,0.0439 0.95005,0.12027 1.24279,0.35462 1.493,0.65867 0.44704,0.54323 0.69091,2.31013 1.18561,4.39118 -4.10017,0.77077 -7.93251,1.38616 -12.47093,2.37123 -0.92041,0.19979 -1.95451,0.33657 -2.89818,0.52695 -0.2708,-1.32621 -0.41434,-2.39513 -0.3513,-3.16165 0.0648,-0.78754 0.27543,-1.2435 0.70258,-1.71256 0.85433,-0.93809 3.15417,-1.90681 7.64066,-2.72253 1.65689,-0.30126 2.92694,-0.40746 3.86424,-0.3952 z m -66.35073,1.22952 c 1.14246,-0.001 2.56822,0.16945 4.39117,0.61478 2.03239,0.49653 3.21786,1.1937 3.95207,1.93212 0.73422,0.7384 1.06732,1.541 1.22954,2.50297 0.21843,1.29547 0.0331,2.88997 -0.0439,4.43508 -1.04429,-0.11777 -2.12985,-0.11224 -3.16165,-0.26347 -4.56488,-0.66921 -8.9402,-1.76837 -13.12963,-3.16165 0.97714,-1.99941 1.76473,-3.81918 2.89818,-4.83029 0.66553,-0.59369 1.52526,-1.02571 2.81035,-1.18562 0.32128,-0.04 0.67307,-0.0436 1.05388,-0.0439 z m 46.23913,1.18562 c 0.92417,-0.002 1.69196,0.0332 2.2834,0.13174 1.18288,0.19722 1.65979,0.51561 1.97603,0.87824 0.31626,0.36261 0.5363,0.90645 0.7026,1.80038 0.16006,0.86034 0.29179,2.0166 0.52694,3.29338 -5.83571,1.08992 -11.949,1.99866 -18.26731,2.50297 0.0393,-2.12863 0.23423,-3.96735 1.14171,-5.2255 1.05194,-1.45847 3.2471,-2.69594 8.34324,-3.20557 1.28867,-0.12883 2.3692,-0.17224 3.29339,-0.17564 z m -25.24929,1.62474 c 5.73777,0.11711 7.92667,1.03947 8.73845,2.06385 0.71994,0.9085 0.74596,2.66881 0.83432,5.09378 -6.0694,0.36893 -12.14257,0.23923 -18.13558,-0.26348 0.0455,-1.48279 0.0995,-2.93117 0.61477,-4.03988 0.37094,-0.79809 0.92174,-1.47419 2.10777,-2.01994 1.18603,-0.54575 3.04176,-0.89144 5.84027,-0.83433 z"
             id="path3989"
             inkscape:connector-curvature="0" />
        </g>
      </g>
      <text
         id="text4923"
         y="279.14117"
         x="153.14684"
         style="font-style:normal;font-variant:normal;font-weight:bold;font-stretch:normal;font-size:3.99296975px;line-height:7.13030291px;font-family:Cantarell;-inkscape-font-specification:'Cantarell Bold';letter-spacing:0px;word-spacing:0px;fill:#ffffff;fill-opacity:1;stroke:none;stroke-width:0.28521213px;stroke-linecap:butt;stroke-linejoin:miter;stroke-opacity:1"
         xml:space="preserve"><tspan
           style="font-style:normal;font-variant:normal;font-weight:bold;font-stretch:normal;font-family:Cantarell;-inkscape-font-specification:'Cantarell Bold';fill:#ffffff;stroke-width:0.28521213px"
           y="279.14117"
           x="153.14684"
           id="tspan4921"
           sodipodi:role="line">papo livre</tspan></text>
    </g>
    <g
       id="layer1-67"
       transform="matrix(0.14990016,0,0,0.14990016,33.924555,129.42925)"
       style="fill:#ffffff">
      <g
         id="g15041"
         transform="matrix(1.293235,0,0,1.293235,-4878.321,-1224.915)"
         style="fill:#ffffff">
        <g
           id="g15043"
           style="fill:#ffffff;fill-opacity:1;fill-rule:nonzero;stroke:none;stroke-miterlimit:4"
           transform="matrix(2.438586,0,0,2.438586,3659.952,1113.451)">
          <g
             id="g15045"
             style="fill:#ffffff;fill-opacity:1">
            <path
               id="path15047"
               style="fill:#ffffff;fill-opacity:1"
               d="M 86.068,0 C 61.466,0 56.851,35.041 70.691,35.041 84.529,35.041 110.671,0 86.068,0 Z"
               inkscape:connector-curvature="0" />
            <path
               id="path15049"
               style="fill:#ffffff;fill-opacity:1"
               d="M 45.217,30.699 C 52.586,31.149 60.671,2.577 46.821,4.374 32.976,6.171 37.845,30.249 45.217,30.699 Z"
               inkscape:connector-curvature="0" />
            <path
               id="path15051"
               style="fill:#ffffff;fill-opacity:1"
               d="M 11.445,48.453 C 16.686,46.146 12.12,23.581 3.208,29.735 -5.7,35.89 6.204,50.759 11.445,48.453 Z"
               inkscape:connector-curvature="0" />
            <path
               id="path15053"
               style="fill:#ffffff;fill-opacity:1"
               d="M 26.212,36.642 C 32.451,35.37 32.793,9.778 21.667,14.369 10.539,18.961 19.978,37.916 26.212,36.642 Z"
               inkscape:connector-curvature="0" />
            <path
               id="path15055"
               style="fill:#ffffff;fill-opacity:1"
               d="m 58.791,93.913 c 1.107,8.454 -6.202,12.629 -13.36,7.179 C 22.644,83.743 83.16,75.088 79.171,51.386 75.86,31.712 15.495,37.769 8.621,68.553 3.968,89.374 27.774,118.26 52.614,118.26 c 12.22,0 26.315,-11.034 28.952,-25.012 C 83.58,82.589 57.867,86.86 58.791,93.913 Z"
               inkscape:connector-curvature="0" />
          </g>
        </g>
        <g
           id="g15057"
           style="fill:#ffffff">
          <path
             id="path15059"
             style="font-style:normal;font-variant:normal;font-weight:bold;font-stretch:normal;font-size:148.699646px;line-height:125%;font-family:'Bitstream Vera Sans';text-align:start;writing-mode:lr-tb;text-anchor:start;fill:#ffffff;fill-opacity:1;stroke:none;stroke-width:1.00000003pt;stroke-linecap:butt;stroke-linejoin:miter;stroke-opacity:1"
             d="m 4176.2963,1214.4401 c -15.1078,0.4069 -27.0386,5.8367 -35.8126,16.25 -9.0861,10.8369 -13.6562,25.8104 -13.6562,44.9063 0,19.0432 4.5703,33.9757 13.6562,44.8124 9.1305,10.8369 21.6664,16.25 37.6563,16.25 16.034,0 28.6014,-5.4131 37.6875,-16.25 9.0859,-10.8367 13.6251,-25.7692 13.625,-44.8124 -1e-4,-19.0959 -4.5391,-34.0694 -13.625,-44.9063 -9.0861,-10.8366 -21.6536,-16.2499 -37.6875,-16.25 -0.6246,0 -1.2296,-0.016 -1.8437,0 z m 1.125,22 c 0.2415,-0.01 0.4737,0 0.7187,0 7.8833,10e-5 13.9919,3.4114 18.3125,10.25 4.3203,6.8388 6.4999,16.4913 6.5,28.9063 0,12.3623 -2.1799,21.9427 -6.5,28.7812 -4.3204,6.8389 -10.4293,10.2812 -18.3125,10.2812 -7.8391,0 -13.8983,-3.4423 -18.2187,-10.2812 -4.3204,-6.8385 -6.4999,-16.4189 -6.5,-28.7812 0,-12.4149 2.1798,-22.0675 6.5,-28.9063 4.1852,-6.6249 10.0123,-10.0428 17.5,-10.25 z"
             inkscape:connector-curvature="0" />
          <path
             id="path15061"
             style="font-style:normal;font-variant:normal;font-weight:bold;font-stretch:normal;font-size:148.699646px;line-height:125%;font-family:'Bitstream Vera Sans';text-align:start;writing-mode:lr-tb;text-anchor:start;fill:#ffffff;fill-opacity:1;stroke:none;stroke-width:1.00000003pt;stroke-linecap:butt;stroke-linejoin:miter;stroke-opacity:1"
             d="m 4005.6293,1325.612 c -13.3076,11.1757 -33.1067,11.0472 -41.3549,11.0472 -16.6133,0 -29.7747,-5.471 -39.4842,-16.413 -9.7097,-10.9946 -14.5644,-25.8819 -14.5644,-44.6622 0,-18.9906 4.9438,-33.9305 14.8316,-44.82 9.8878,-10.8892 23.4277,-16.3339 40.62,-16.334 6.6363,10e-5 12.9831,0.7366 19.0406,2.2094 6.1019,1.473 11.8475,3.6562 17.2368,6.5494 l -6.921,20.4608 c -3.0298,-1.6586 -6.4987,-3.2932 -9.7145,-4.4424 -5.4784,-1.8411 -10.979,-2.7617 -16.5018,-2.7618 -10.2442,10e-5 -18.15,3.3932 -23.7173,10.1792 -5.523,6.7336 -8.2844,16.3867 -8.2844,28.9594 0,12.4676 2.6723,22.0945 8.0172,28.8806 5.3446,6.7861 13.3768,10.1791 22.7818,10.1791 9.5548,0 15.4728,-2.4084 18.6291,-4.9461 v -20.3835 h -20.7001 v -20.3584 h 40.0855"
             inkscape:connector-curvature="0" />
          <path
             id="path15063"
             style="font-style:normal;font-variant:normal;font-weight:bold;font-stretch:normal;font-size:148.699646px;line-height:125%;font-family:'Bitstream Vera Sans';text-align:start;writing-mode:lr-tb;text-anchor:start;fill:#ffffff;fill-opacity:1;stroke:none;stroke-width:1.00000003pt;stroke-linecap:butt;stroke-linejoin:miter;stroke-opacity:1"
             d="m 4023.2108,1216.5605 h 16.2279 l 51.2775,70.8022 v -70.8022 h 21.8853 v 117.8103 h -16.2279 l -51.2774,-70.8022 v 70.8022 h -21.8854 v -117.8103"
             inkscape:connector-curvature="0" />
          <path
             id="path15065"
             style="font-style:normal;font-variant:normal;font-weight:bold;font-stretch:normal;font-size:148.699646px;line-height:125%;font-family:'Bitstream Vera Sans';text-align:start;writing-mode:lr-tb;text-anchor:start;fill:#ffffff;fill-opacity:1;stroke:none;stroke-width:1.00000003pt;stroke-linecap:butt;stroke-linejoin:miter;stroke-opacity:1"
             d="m 4246.3361,1216.5605 h 32.7366 l 22.7151,73.5479 22.8487,-73.5479 h 27.6698 l 12.5,117.8103 h -24.3186 l -7.5,-73.668 -22.9823,74.0213 h -16.3015 l -22.9824,-76.5213 -7.5,76.168 h -24.3854 l 12.5,-117.8103"
             inkscape:connector-curvature="0" />
          <path
             id="path15067"
             style="font-style:normal;font-variant:normal;font-weight:bold;font-stretch:normal;font-size:148.699646px;line-height:125%;font-family:'Bitstream Vera Sans';text-align:start;writing-mode:lr-tb;text-anchor:start;fill:#ffffff;fill-opacity:1;stroke:none;stroke-width:1.00000003pt;stroke-linecap:butt;stroke-linejoin:miter;stroke-opacity:1"
             d="m 4382.3597,1216.5605 h 69.4147 v 22.9624 h -43.6933 v 24.4365 h 33.5877 v 20.4623 h -33.5877 v 26.9868 h 45.1631 v 22.9623 h -70.8845 v -117.8103"
             inkscape:connector-curvature="0" />
          <text
             xml:space="preserve"
             id="text15069"
             style="font-style:normal;font-weight:normal;font-size:30.68958855px;font-family:'Bitstream Vera Sans';fill:#ffffff;fill-opacity:1;stroke:none;stroke-width:1.00000003pt;stroke-linecap:butt;stroke-linejoin:miter;stroke-opacity:1"
             y="1215.743"
             x="4474.6182"><tspan
               id="tspan15072"
               style="letter-spacing:11.06259632;fill:#ffffff"
               y="1215.743"
               x="4474.6182"><tspan
                 id="tspan15074"
                 style="letter-spacing:0.2523815;fill:#ffffff">TM</tspan></tspan></text>
        </g>
      </g>
    </g>
  </g>
</svg>
